<svg width="60" height="60" viewBox="0 0 60 60" fill="none" xmlns="http://www.w3.org/2000/svg">
<path d="M26 20.0625C26 18.9234 26.9234 18 28.0625 18H46C47.1046 18 48 18.8954 48 20C48 21.1046 47.1046 22 46 22H26V20.0625Z" fill="white" stroke="#17356F" stroke-width="1.5"/>
<rect width="14" height="26.0714" rx="2" transform="matrix(-0.830445 -0.557101 -0.557101 0.830445 41.1504 15.7998)" fill="white" stroke="#17356F" stroke-width="1.5"/>
<rect width="14" height="26.0714" rx="2" transform="matrix(-0.673728 -0.73898 -0.73898 0.673728 45.6992 18.3457)" fill="white" stroke="#17356F" stroke-width="1.5"/>
<circle r="4" transform="matrix(-0.673728 -0.73898 -0.73898 0.673728 31.3492 22.6052)" stroke="#17356F" stroke-width="1.5"/>
<path d="M14 30C14 26.2288 14 24.3431 15.1716 23.1716C16.3431 22 18.2288 22 22 22H46C47.1046 22 48 21.1046 48 20V35V40C48 43.7712 48 45.6569 46.8284 46.8284C45.6569 48 43.7712 48 40 48H22C18.2288 48 16.3431 48 15.1716 46.8284C14 45.6569 14 43.7712 14 40V30Z" fill="white" stroke="#17356F" stroke-width="1.5"/>
<rect x="12" y="30" width="12" height="10" rx="2" fill="white" stroke="#17356F" stroke-width="1.5"/>
<circle r="1" transform="matrix(-1 0 0 1 20 35)" fill="#17356F"/>
<circle cx="47" cy="43" r="10" transform="rotate(-180 47 43)" fill="#FF3D58"/>
<path d="M50 42.9998H44" stroke="white" stroke-width="2" stroke-linecap="round" stroke-linejoin="round"/>
</svg>
