<svg width="150" height="35" viewBox="0 0 150 35" fill="none" xmlns="http://www.w3.org/2000/svg">
<path fill-rule="evenodd" clip-rule="evenodd" d="M13.2545 14.7343L7.44816 11.3901C7.09621 11.1879 6.67842 11.1334 6.28638 11.2387C5.89433 11.3439 5.56002 11.6003 5.35673 11.9517C5.15445 12.3036 5.09998 12.7214 5.20525 13.1135C5.31051 13.5055 5.56693 13.8398 5.91828 14.0431L10.1947 16.5125L11.7246 17.3944C12.1873 17.6702 12.7159 17.8159 13.2545 17.8159C13.7931 17.8159 14.3217 17.6702 14.7843 17.3944L16.3142 16.5125L28.24 9.61189C28.5912 9.40929 28.8475 9.07562 28.9528 8.68416C29.0581 8.2927 29.0037 7.87547 28.8016 7.52407C28.597 7.17405 28.2625 6.91902 27.8708 6.81452C27.479 6.71002 27.0619 6.7645 26.7102 6.96611L13.2545 14.7343Z" fill="#FB405A"/>
<path fill-rule="evenodd" clip-rule="evenodd" d="M14.0212 22.8265C14.2238 23.1776 14.5575 23.4339 14.9489 23.5392C15.3404 23.6445 15.7576 23.5901 16.109 23.388L25.1839 18.1505C25.3581 18.05 25.5108 17.9162 25.6333 17.7568C25.7558 17.5973 25.8456 17.4153 25.8978 17.221C25.9499 17.0268 25.9633 16.8243 25.9372 16.6249C25.911 16.4255 25.8459 16.2332 25.7454 16.059C25.645 15.8848 25.5112 15.7321 25.3517 15.6096C25.1922 15.4871 25.0102 15.3973 24.816 15.3451C24.6218 15.293 24.4192 15.2796 24.2198 15.3057C24.0205 15.3319 23.8282 15.397 23.654 15.4975L14.5791 20.7494C14.2308 20.9519 13.9767 21.2839 13.8722 21.673C13.7677 22.0621 13.8212 22.4767 14.0212 22.8265Z" fill="#17356F"/>
<path fill-rule="evenodd" clip-rule="evenodd" d="M25.7455 22.8265C25.5409 22.4764 25.2063 22.2214 24.8146 22.1169C24.4229 22.0124 24.0057 22.0669 23.654 22.2685L13.2545 28.2728L3.06012 22.3873V10.6163L13.2545 4.73075L19.0644 8.08208C19.4153 8.27739 19.8289 8.32691 20.216 8.21995C20.603 8.113 20.9325 7.85813 21.1333 7.51037C21.3341 7.16261 21.3902 6.74984 21.2893 6.36113C21.1885 5.97242 20.9388 5.63896 20.5943 5.4327L14.7843 2.07777C14.3217 1.80197 13.7931 1.65637 13.2545 1.65637C12.7159 1.65637 12.1873 1.80197 11.7246 2.07777L1.53024 7.96329C1.05933 8.22601 0.66841 8.61143 0.399031 9.07856C0.129651 9.5457 -0.008117 10.0771 0.0003697 10.6163V22.3873C-0.00746301 22.9259 0.130613 23.4565 0.399959 23.923C0.669305 24.3894 1.05988 24.7742 1.53024 25.0367L11.7246 30.9222C12.1873 31.198 12.7159 31.3436 13.2545 31.3436C13.7931 31.3436 14.3217 31.198 14.7843 30.9222L25.1839 24.9179C25.5352 24.7146 25.7917 24.3803 25.8969 23.9882C26.0022 23.5962 25.9477 23.1784 25.7455 22.8265Z" fill="#17356F"/>
<path fill-rule="evenodd" clip-rule="evenodd" d="M49.2875 22.9669V23.6688C49.2875 23.7955 49.2625 23.9209 49.2141 24.038C49.1656 24.155 49.0945 24.2614 49.0049 24.351C48.9154 24.4405 48.809 24.5116 48.692 24.5601C48.5749 24.6086 48.4495 24.6335 48.3228 24.6335H37.9232C37.6677 24.6326 37.4228 24.5306 37.2421 24.3499C37.0614 24.1692 36.9595 23.9244 36.9585 23.6688V9.67675C36.9595 9.42118 37.0614 9.17635 37.2421 8.99564C37.4228 8.81492 37.6677 8.71298 37.9232 8.71203H48.0384C48.2943 8.71203 48.5396 8.81367 48.7206 8.99459C48.9015 9.17551 49.0031 9.42089 49.0031 9.67675V10.3787C49.0022 10.6343 48.9002 10.8791 48.7195 11.0598C48.5388 11.2405 48.294 11.3425 48.0384 11.3434H39.9715V15.3031H47.0521C47.3077 15.304 47.5525 15.406 47.7332 15.5867C47.9139 15.7674 48.0159 16.0122 48.0168 16.2678V16.8798C48.0159 17.1353 47.9139 17.3802 47.7332 17.5609C47.5525 17.7416 47.3077 17.8435 47.0521 17.8445H39.9715V22.0165H48.3228C48.4495 22.0165 48.5749 22.0415 48.692 22.09C48.809 22.1384 48.9154 22.2095 49.0049 22.2991C49.0945 22.3887 49.1656 22.495 49.2141 22.6121C49.2625 22.7291 49.2875 22.8546 49.2875 22.9813V22.9669ZM137.102 18.514C137.102 22.5817 140.31 24.8171 144.086 24.8171C145.852 24.8171 147.28 24.3971 148.369 23.5572C149.122 22.9777 148.826 22.3513 148.395 21.8114C147.963 21.2714 147.387 20.9474 146.703 21.4298C145.97 21.9684 145.091 22.271 144.183 22.2973C142.059 22.2973 140.508 21.3938 140.133 19.6947H149.035C149.287 19.6939 149.529 19.5949 149.709 19.4188C149.889 19.2427 149.993 19.0034 150 18.7516C150 18.5392 150 18.0785 149.975 17.8301C149.662 14.4572 147.153 12.2145 143.639 12.2145C139.975 12.2145 137.109 14.7811 137.109 18.514H137.102ZM147.203 17.3837H140.083C140.31 15.5839 142.055 14.5723 143.654 14.5723C145.252 14.5723 146.926 15.5371 147.203 17.3837ZM52.9376 7.75451H54.0175C54.2731 7.75546 54.5179 7.8574 54.6986 8.03812C54.8793 8.21883 54.9813 8.46366 54.9822 8.71922V23.6688C54.9813 23.9244 54.8793 24.1692 54.6986 24.3499C54.5179 24.5306 54.2731 24.6326 54.0175 24.6335H52.9376C52.682 24.6326 52.4372 24.5306 52.2565 24.3499C52.0758 24.1692 51.9738 23.9244 51.9729 23.6688V8.71922C51.9738 8.46366 52.0758 8.21883 52.2565 8.03812C52.4372 7.8574 52.682 7.75546 52.9376 7.75451ZM69.8346 19.6947H60.9325C61.2925 21.3938 62.862 22.2973 64.9858 22.2973C65.8942 22.2699 66.7728 21.9674 67.5056 21.4298C68.1859 20.9474 68.7979 21.3182 69.1939 21.8114C69.5898 22.3045 69.9138 22.9777 69.1723 23.5572C68.0803 24.3947 66.6513 24.8147 64.885 24.8171C61.1089 24.8171 57.9016 22.5817 57.9016 18.514C57.9016 14.7811 60.7814 12.2145 64.4315 12.2145C67.9484 12.2145 70.4538 14.4572 70.7669 17.8301C70.7885 18.0785 70.7957 18.55 70.7921 18.7516C70.7856 19.0034 70.6812 19.2427 70.501 19.4188C70.3209 19.5949 70.0793 19.6939 69.8274 19.6947H69.8346ZM64.4602 14.5723C62.862 14.5723 61.1161 15.5875 60.8893 17.3837H68.0096C67.7324 15.5371 66.0369 14.5723 64.4602 14.5723ZM78.8591 24.8171C75.1262 24.8171 72.2788 22.4089 72.2788 18.514C72.2788 14.6191 75.1262 12.2145 78.8591 12.2145C80.7885 12.2145 82.8187 12.8517 84.003 14.3744C84.6078 15.1447 84.183 15.5551 83.6431 15.9618C83.1031 16.3686 82.3076 16.6818 81.71 16.005C80.9433 15.2459 79.9092 14.8181 78.8303 14.8135C76.8252 14.8135 75.317 16.1742 75.317 18.5284C75.317 20.8826 76.8252 22.2433 78.8303 22.2433C79.388 22.2551 79.9418 22.1464 80.4537 21.9247C80.9656 21.7029 81.4236 21.3732 81.7964 20.9582C82.4048 20.2635 83.0095 20.5983 83.5459 21.0194C84.0822 21.4406 84.5898 21.9481 83.9814 22.7041C82.7899 24.1836 80.7417 24.8315 78.8519 24.8315L78.8591 24.8171ZM114.086 11.3434V15.9366H120.734C120.99 15.9376 121.235 16.0395 121.416 16.2202C121.596 16.401 121.698 16.6458 121.699 16.9014V17.6033C121.698 17.8589 121.596 18.1037 121.416 18.2844C121.235 18.4651 120.99 18.5671 120.734 18.568H114.071V23.6688C114.07 23.9244 113.968 24.1692 113.788 24.3499C113.607 24.5306 113.362 24.6326 113.107 24.6335H112.002C111.746 24.6326 111.501 24.5306 111.32 24.3499C111.14 24.1692 111.038 23.9244 111.037 23.6688V9.67675C111.037 9.42089 111.138 9.17551 111.319 8.99459C111.5 8.81367 111.746 8.71203 112.002 8.71203H121.696C121.951 8.71203 122.197 8.81367 122.378 8.99459C122.559 9.17551 122.66 9.42089 122.66 9.67675V10.3787C122.659 10.6343 122.557 10.8791 122.377 11.0598C122.196 11.2405 121.951 11.3425 121.696 11.3434H114.086ZM125.889 12.3945H126.969C127.225 12.3955 127.469 12.4974 127.65 12.6781C127.831 12.8588 127.933 13.1037 127.934 13.3592V23.6688C127.933 23.9244 127.831 24.1692 127.65 24.3499C127.469 24.5306 127.225 24.6326 126.969 24.6335H125.889C125.633 24.6335 125.388 24.5319 125.207 24.351C125.026 24.17 124.924 23.9247 124.924 23.6688V13.3592C124.925 13.1037 125.027 12.8588 125.208 12.6781C125.389 12.4974 125.634 12.3955 125.889 12.3945ZM126.372 10.6883C125.194 10.6883 124.37 10.0583 124.37 8.81282C124.37 7.56732 125.194 6.93738 126.372 6.93738C127.549 6.93738 128.377 7.50973 128.377 8.73723C128.377 9.96473 127.595 10.6811 126.372 10.6811V10.6883ZM132.513 7.75451H133.593C133.848 7.75546 134.093 7.8574 134.274 8.03812C134.454 8.21883 134.556 8.46366 134.557 8.71922V23.6688C134.556 23.9244 134.454 24.1692 134.274 24.3499C134.093 24.5306 133.848 24.6326 133.593 24.6335H132.513C132.257 24.6326 132.012 24.5306 131.832 24.3499C131.651 24.1692 131.549 23.9244 131.548 23.6688V8.71922C131.549 8.46366 131.651 8.21883 131.832 8.03812C132.012 7.8574 132.257 7.75546 132.513 7.75451ZM93.0995 24.5003C92.4617 24.7152 91.7926 24.8223 91.1196 24.8171C88.2399 24.8171 86.548 23.3772 86.548 20.4255V10.6703C86.549 10.4147 86.6509 10.1699 86.8316 9.98915C87.0123 9.80844 87.2572 9.7065 87.5127 9.70555H88.5927C88.8482 9.7065 89.0931 9.80844 89.2738 9.98915C89.4545 10.1699 89.5564 10.4147 89.5574 10.6703V12.6861H92.1636C92.4191 12.6871 92.664 12.789 92.8447 12.9697C93.0254 13.1504 93.1273 13.3953 93.1283 13.6508V14.2484C93.1273 14.5039 93.0254 14.7488 92.8447 14.9295C92.664 15.1102 92.4191 15.2121 92.1636 15.2131H89.5574V20.5191C89.5574 21.4118 89.8526 22.3189 91.0405 22.3189C91.499 22.2825 91.9512 22.1894 92.3868 22.0417C93.1607 21.7682 93.4451 22.2973 93.6718 22.8697C93.8986 23.442 93.8698 24.2447 93.1067 24.5147L93.0995 24.5003ZM107.714 13.3592V23.6688C107.714 23.9247 107.613 24.17 107.432 24.351C107.251 24.5319 107.005 24.6335 106.75 24.6335H106.174C106.004 24.6357 105.837 24.5921 105.69 24.5072C105.543 24.4223 105.421 24.2993 105.338 24.1512L104.874 23.3448C104.071 24.2447 102.714 24.8171 101.051 24.8171C97.3543 24.8171 94.6906 22.1569 94.6906 18.514C94.6906 14.8711 97.3543 12.2145 101.051 12.2145C102.703 12.2145 103.823 12.6969 104.712 13.5716L105.115 12.8769C105.198 12.7285 105.319 12.6053 105.466 12.5204C105.613 12.4354 105.781 12.3919 105.95 12.3945H106.75C107.005 12.3955 107.25 12.4974 107.431 12.6781C107.611 12.8588 107.713 13.1037 107.714 13.3592ZM101.426 22.2289C103.395 22.2289 104.781 20.6882 104.781 18.514C104.781 16.3398 103.395 14.7991 101.426 14.7991C100.935 14.7834 100.446 14.869 99.9899 15.0505C99.5336 15.232 99.1197 15.5056 98.7738 15.8541C98.428 16.2027 98.1576 16.6187 97.9797 17.0764C97.8017 17.534 97.72 18.0234 97.7395 18.514C97.7395 20.9582 99.4422 22.2289 101.426 22.2289Z" fill="#17356F"/>
</svg>
