<svg width="31" height="30" viewBox="0 0 31 30" fill="none" xmlns="http://www.w3.org/2000/svg">
<circle cx="15.668" cy="15" r="12" fill="#2A6FF2"/>
<path d="M15.668 21.5V13.5" stroke="white" stroke-width="2" stroke-linecap="round"/>
<circle r="1.36783" transform="matrix(1 0 0 -1 15.6686 8.99985)" fill="white"/>
</svg>
