<svg width="269" height="181" viewBox="0 0 269 181" fill="none" xmlns="http://www.w3.org/2000/svg">
<rect opacity="0.05" x="145.667" width="127.426" height="127.426" rx="20.5951" transform="rotate(45 145.667 0)" fill="#17356F"/>
<rect x="93" y="21" width="106" height="138" rx="10.2976" fill="white" stroke="#AFBED7" stroke-width="1.93079"/>
<path opacity="0.3" d="M105 131L115.298 131" stroke="#17356F" stroke-width="1.2872" stroke-linecap="round"/>
<path opacity="0.3" d="M120.446 131L129.457 131" stroke="#17356F" stroke-width="1.2872" stroke-linecap="round"/>
<path opacity="0.3" d="M134.605 131L143.616 131" stroke="#17356F" stroke-width="1.2872" stroke-linecap="round"/>
<path opacity="0.3" d="M105 133.574H125.595" stroke="#17356F" stroke-width="1.2872" stroke-linecap="round"/>
<path opacity="0.3" d="M105 136.149H125.595" stroke="#17356F" stroke-width="1.2872" stroke-linecap="round"/>
<path opacity="0.3" d="M105 138.723H125.595" stroke="#17356F" stroke-width="1.2872" stroke-linecap="round"/>
<path opacity="0.3" d="M105 141.298H125.595" stroke="#17356F" stroke-width="1.2872" stroke-linecap="round"/>
<path opacity="0.3" d="M105 143.872H125.595" stroke="#17356F" stroke-width="1.2872" stroke-linecap="round"/>
<path opacity="0.3" d="M105 146.446H125.595" stroke="#17356F" stroke-width="1.2872" stroke-linecap="round"/>
<path opacity="0.3" d="M179 133.574H182.862" stroke="#17356F" stroke-width="1.2872" stroke-linecap="round"/>
<path opacity="0.3" d="M179 136.149H182.862" stroke="#17356F" stroke-width="1.2872" stroke-linecap="round"/>
<path opacity="0.3" d="M179 138.723H182.862" stroke="#17356F" stroke-width="1.2872" stroke-linecap="round"/>
<path opacity="0.3" d="M179 141.298H182.862" stroke="#17356F" stroke-width="1.2872" stroke-linecap="round"/>
<path opacity="0.3" d="M179 143.872H182.862" stroke="#17356F" stroke-width="1.2872" stroke-linecap="round"/>
<path opacity="0.3" d="M179 146.446H182.862" stroke="#17356F" stroke-width="1.2872" stroke-linecap="round"/>
<path opacity="0.3" d="M131 134H168" stroke="#17356F" stroke-width="1.2872" stroke-linecap="round"/>
<path opacity="0.3" d="M131 136H168" stroke="#17356F" stroke-width="1.2872" stroke-linecap="round"/>
<path opacity="0.3" d="M131 139H168" stroke="#17356F" stroke-width="1.2872" stroke-linecap="round"/>
<path opacity="0.3" d="M131 141H168" stroke="#17356F" stroke-width="1.2872" stroke-linecap="round"/>
<path opacity="0.3" d="M131 144H168" stroke="#17356F" stroke-width="1.2872" stroke-linecap="round"/>
<path opacity="0.3" d="M131 146H168" stroke="#17356F" stroke-width="1.2872" stroke-linecap="round"/>
<path d="M104.155 34.7542H122.535" stroke="#AFBED7" stroke-width="2.57439" stroke-linecap="round"/>
<rect x="186.536" y="33.4668" width="2.57439" height="2.57439" rx="0.643598" fill="#AFBED7"/>
<rect x="181.387" y="33.4668" width="2.57439" height="2.57439" rx="0.643598" fill="#AFBED7"/>
<rect x="102.868" y="43.7644" width="41.1903" height="2.57439" rx="0.643598" fill="#AFBED7"/>
<circle cx="147" cy="90" r="23" fill="#AFBED7"/>
<path d="M137 91.1944L143.869 98L158 84" stroke="white" stroke-width="2" stroke-linecap="round" stroke-linejoin="round"/>
<rect opacity="0.05" x="230.301" y="28.3184" width="38.6159" height="38.6159" rx="19.3079" fill="#17356F"/>
<rect opacity="0.05" y="124.582" width="39.0449" height="39.0449" rx="9.01037" transform="rotate(-45 0 124.582)" fill="#17356F"/>
</svg>
