<svg width="320" height="180" viewBox="0 0 320 180" fill="none" xmlns="http://www.w3.org/2000/svg">
<rect opacity="0.05" x="161.751" width="127.426" height="127.426" rx="20.5951" transform="rotate(45 161.751 0)" fill="#17356F"/>
<rect x="106.654" y="23.1694" width="106.837" height="133.868" rx="10.2976" fill="white" stroke="#17356F" stroke-width="1.93079"/>
<rect x="140.121" y="126.145" width="41.1903" height="20.5951" rx="3.86159" fill="#FF3D58"/>
<path d="M118.239 34.7539H136.619" stroke="#2A6FF2" stroke-width="2.57439" stroke-linecap="round"/>
<path opacity="0.3" d="M122.101 60.498L132.398 60.498" stroke="#17356F" stroke-width="1.2872" stroke-linecap="round"/>
<path opacity="0.3" d="M137.547 60.498L146.557 60.498" stroke="#17356F" stroke-width="1.2872" stroke-linecap="round"/>
<path opacity="0.3" d="M151.706 60.498L160.716 60.498" stroke="#17356F" stroke-width="1.2872" stroke-linecap="round"/>
<path opacity="0.3" d="M122.101 63.0725H142.696" stroke="#17356F" stroke-width="1.2872" stroke-linecap="round"/>
<path opacity="0.3" d="M122.101 65.6467H142.696" stroke="#17356F" stroke-width="1.2872" stroke-linecap="round"/>
<path opacity="0.3" d="M122.101 68.2212H142.696" stroke="#17356F" stroke-width="1.2872" stroke-linecap="round"/>
<path opacity="0.3" d="M122.101 70.7957H142.696" stroke="#17356F" stroke-width="1.2872" stroke-linecap="round"/>
<path opacity="0.3" d="M122.101 73.3699H142.696" stroke="#17356F" stroke-width="1.2872" stroke-linecap="round"/>
<path opacity="0.3" d="M122.101 75.9443H142.696" stroke="#17356F" stroke-width="1.2872" stroke-linecap="round"/>
<path opacity="0.3" d="M156.855 63.0725H160.717" stroke="#17356F" stroke-width="1.2872" stroke-linecap="round"/>
<path opacity="0.3" d="M156.855 65.6467H160.717" stroke="#17356F" stroke-width="1.2872" stroke-linecap="round"/>
<path opacity="0.3" d="M156.855 68.2212H160.717" stroke="#17356F" stroke-width="1.2872" stroke-linecap="round"/>
<path opacity="0.3" d="M156.855 70.7957H160.717" stroke="#17356F" stroke-width="1.2872" stroke-linecap="round"/>
<path opacity="0.3" d="M156.855 73.3699H160.717" stroke="#17356F" stroke-width="1.2872" stroke-linecap="round"/>
<path opacity="0.3" d="M156.855 75.9443H160.717" stroke="#17356F" stroke-width="1.2872" stroke-linecap="round"/>
<path opacity="0.3" d="M147.845 63.0725H151.706" stroke="#17356F" stroke-width="1.2872" stroke-linecap="round"/>
<path opacity="0.3" d="M147.845 65.6467H151.706" stroke="#17356F" stroke-width="1.2872" stroke-linecap="round"/>
<path opacity="0.3" d="M147.845 68.2212H151.706" stroke="#17356F" stroke-width="1.2872" stroke-linecap="round"/>
<path opacity="0.3" d="M147.845 70.7957H151.706" stroke="#17356F" stroke-width="1.2872" stroke-linecap="round"/>
<path opacity="0.3" d="M147.845 73.3699H151.706" stroke="#17356F" stroke-width="1.2872" stroke-linecap="round"/>
<path opacity="0.3" d="M147.845 75.9443H151.706" stroke="#17356F" stroke-width="1.2872" stroke-linecap="round"/>
<path opacity="0.3" d="M150.419 84.9548L160.717 84.9548" stroke="#17356F" stroke-width="1.2872" stroke-linecap="round"/>
<path opacity="0.3" d="M165.865 84.9546L174.876 84.9546" stroke="#17356F" stroke-width="1.2872" stroke-linecap="round"/>
<path opacity="0.3" d="M180.024 84.9546L189.035 84.9546" stroke="#17356F" stroke-width="1.2872" stroke-linecap="round"/>
<path opacity="0.3" d="M150.419 87.5288H171.014" stroke="#17356F" stroke-width="1.2872" stroke-linecap="round"/>
<path opacity="0.3" d="M150.419 90.1033H171.014" stroke="#17356F" stroke-width="1.2872" stroke-linecap="round"/>
<path opacity="0.3" d="M150.419 92.6777H171.014" stroke="#17356F" stroke-width="1.2872" stroke-linecap="round"/>
<path opacity="0.3" d="M150.419 95.252H171.014" stroke="#17356F" stroke-width="1.2872" stroke-linecap="round"/>
<path opacity="0.3" d="M150.419 97.8264H171.014" stroke="#17356F" stroke-width="1.2872" stroke-linecap="round"/>
<path opacity="0.3" d="M150.419 100.401H171.014" stroke="#17356F" stroke-width="1.2872" stroke-linecap="round"/>
<path opacity="0.3" d="M185.173 87.5288H189.035" stroke="#17356F" stroke-width="1.2872" stroke-linecap="round"/>
<path opacity="0.3" d="M185.173 90.1033H189.035" stroke="#17356F" stroke-width="1.2872" stroke-linecap="round"/>
<path opacity="0.3" d="M185.173 92.6777H189.035" stroke="#17356F" stroke-width="1.2872" stroke-linecap="round"/>
<path opacity="0.3" d="M185.173 95.252H189.035" stroke="#17356F" stroke-width="1.2872" stroke-linecap="round"/>
<path opacity="0.3" d="M185.173 97.8264H189.035" stroke="#17356F" stroke-width="1.2872" stroke-linecap="round"/>
<path opacity="0.3" d="M185.173 100.401H189.035" stroke="#17356F" stroke-width="1.2872" stroke-linecap="round"/>
<path opacity="0.3" d="M176.163 87.5288H180.025" stroke="#17356F" stroke-width="1.2872" stroke-linecap="round"/>
<path opacity="0.3" d="M176.163 90.1033H180.025" stroke="#17356F" stroke-width="1.2872" stroke-linecap="round"/>
<path opacity="0.3" d="M176.163 92.6777H180.025" stroke="#17356F" stroke-width="1.2872" stroke-linecap="round"/>
<path opacity="0.3" d="M176.163 95.252H180.025" stroke="#17356F" stroke-width="1.2872" stroke-linecap="round"/>
<path opacity="0.3" d="M176.163 97.8264H180.025" stroke="#17356F" stroke-width="1.2872" stroke-linecap="round"/>
<path opacity="0.3" d="M176.163 100.401H180.025" stroke="#17356F" stroke-width="1.2872" stroke-linecap="round"/>
<rect x="200.619" y="33.4668" width="2.57439" height="2.57439" rx="0.643598" fill="#17356F"/>
<rect x="195.471" y="33.4668" width="2.57439" height="2.57439" rx="0.643598" fill="#17356F"/>
<rect opacity="0.3" x="116.952" y="43.7644" width="41.1903" height="2.57439" rx="0.643598" fill="#17356F"/>
<rect x="196.758" y="114.561" width="45.0519" height="52.775" rx="10.2976" fill="white" stroke="#17356F" stroke-width="1.93079"/>
<rect opacity="0.05" x="246.384" y="28.3184" width="38.6159" height="38.6159" rx="19.3079" fill="#17356F"/>
<rect opacity="0.05" x="16.0835" y="124.582" width="39.0449" height="39.0449" rx="9.01037" transform="rotate(-45 16.0835 124.582)" fill="#17356F"/>
<path d="M209.63 130.006H230.225" stroke="#2A6FF2" stroke-width="2.57439" stroke-linecap="round"/>
<rect opacity="0.3" x="212.204" y="140.305" width="15.4464" height="3.86159" rx="0.643598" fill="#17356F"/>
</svg>
