<svg width="320" height="180" viewBox="0 0 320 180" fill="none" xmlns="http://www.w3.org/2000/svg">
<rect opacity="0.05" x="161.751" y="1" width="127.426" height="127.426" rx="20.5951" transform="rotate(45 161.751 1)" fill="#17356F"/>
<rect opacity="0.05" x="48" y="123" width="34" height="34" rx="17" fill="#17356F"/>
<rect opacity="0.05" x="229" y="40" width="36.7696" height="36.7696" rx="9.01037" transform="rotate(-45 229 40)" fill="#17356F"/>
<path d="M203 76V64.1818C203 56.0822 203 52.0324 200.484 49.5162C197.968 47 193.918 47 185.818 47H160H131.333C125.966 47 123.283 47 121.285 48.1569C119.987 48.9087 118.909 49.9872 118.157 51.2852C117 53.2826 117 55.9662 117 61.3333V76H203Z" fill="white" stroke="#17356F" stroke-width="2"/>
<path d="M203 76L214.5 110.5L105.5 111L117 76H203Z" fill="white" stroke="#17356F" stroke-width="2" stroke-linejoin="round"/>
<path d="M171.455 61.8181V27.4545L167.446 24.5908L159.427 27.4545L151.409 24.5908L143.391 27.4545L135.373 24.5908L131.364 27.4545V61.8181H171.455Z" fill="white" stroke="#17356F" stroke-width="2" stroke-linejoin="round"/>
<path d="M128.5 61.8181L174.318 61.8181" stroke="#17356F" stroke-width="2" stroke-linecap="round"/>
<rect x="105" y="105" width="110" height="28" rx="8" fill="white" stroke="#17356F" stroke-width="2"/>
<rect x="190" y="112" width="32" height="32" rx="16" fill="#FF3D58"/>
<path opacity="0.3" d="M136 36L140.298 36" stroke="#17356F" stroke-width="1.2872" stroke-linecap="round"/>
<path opacity="0.3" d="M150.446 36L153.457 36" stroke="#17356F" stroke-width="1.2872" stroke-linecap="round"/>
<path opacity="0.3" d="M163.605 36L166.616 36" stroke="#17356F" stroke-width="1.2872" stroke-linecap="round"/>
<path opacity="0.3" d="M136 39.5742H150.595" stroke="#17356F" stroke-width="1.2872" stroke-linecap="round"/>
<path opacity="0.3" d="M136 42.1487H150.595" stroke="#17356F" stroke-width="1.2872" stroke-linecap="round"/>
<path opacity="0.3" d="M136 44.7231H150.595" stroke="#17356F" stroke-width="1.2872" stroke-linecap="round"/>
<path opacity="0.3" d="M136 47.2976H150.595" stroke="#17356F" stroke-width="1.2872" stroke-linecap="round"/>
<path opacity="0.3" d="M136 49.8721H150.595" stroke="#17356F" stroke-width="1.2872" stroke-linecap="round"/>
<path opacity="0.3" d="M136 52.4463H150.595" stroke="#17356F" stroke-width="1.2872" stroke-linecap="round"/>
<path opacity="0.3" d="M166.754 39.5742H164.616" stroke="#17356F" stroke-width="1.2872" stroke-linecap="round"/>
<path opacity="0.3" d="M166.754 42.1487H164.616" stroke="#17356F" stroke-width="1.2872" stroke-linecap="round"/>
<path opacity="0.3" d="M166.754 44.7231H164.616" stroke="#17356F" stroke-width="1.2872" stroke-linecap="round"/>
<path opacity="0.3" d="M166.754 47.2976H164.616" stroke="#17356F" stroke-width="1.2872" stroke-linecap="round"/>
<path opacity="0.3" d="M166.754 49.8721H164.616" stroke="#17356F" stroke-width="1.2872" stroke-linecap="round"/>
<path opacity="0.3" d="M166.754 52.4463H164.616" stroke="#17356F" stroke-width="1.2872" stroke-linecap="round"/>
<path opacity="0.3" d="M160.744 39.5742H158.606" stroke="#17356F" stroke-width="1.2872" stroke-linecap="round"/>
<path opacity="0.3" d="M160.744 42.1487H158.606" stroke="#17356F" stroke-width="1.2872" stroke-linecap="round"/>
<path opacity="0.3" d="M160.744 44.7231H158.606" stroke="#17356F" stroke-width="1.2872" stroke-linecap="round"/>
<path opacity="0.3" d="M160.744 47.2976H158.606" stroke="#17356F" stroke-width="1.2872" stroke-linecap="round"/>
<path opacity="0.3" d="M160.744 49.8721H158.606" stroke="#17356F" stroke-width="1.2872" stroke-linecap="round"/>
<path opacity="0.3" d="M160.744 52.4463H158.606" stroke="#17356F" stroke-width="1.2872" stroke-linecap="round"/>
<rect opacity="0.3" x="159" y="94" width="41" height="3" rx="0.643598" fill="#17356F"/>
<rect x="146" y="117" width="29" height="3" rx="0.643598" fill="#2A6FF2"/>
<rect x="129" y="94" width="3" height="3" rx="0.643598" fill="#17356F"/>
<rect x="123" y="94" width="3" height="3" rx="0.643598" fill="#17356F"/>
<path d="M199 128H213" stroke="white" stroke-width="2" stroke-linecap="round"/>
<path d="M206 121L206 135" stroke="white" stroke-width="2" stroke-linecap="round"/>
<rect x="229" y="112" width="32" height="32" rx="16" fill="#FF3D58"/>
<path d="M238 128H252" stroke="white" stroke-width="2" stroke-linecap="round"/>
</svg>
