<svg width="546" height="850" viewBox="0 0 546 850" fill="none" xmlns="http://www.w3.org/2000/svg">
<g clip-path="url(#clip0)">
<g filter="url(#filter0_d)">
<rect width="546" height="850" fill="#0E2E69"/>
</g>
<g filter="url(#filter1_d)">
<rect width="546" height="850" fill="url(#paint0_linear)" shape-rendering="crispEdges"/>
</g>
<path d="M542.426 850.552H529.521V846.98H530.681C534.305 846.98 537.253 844.035 537.253 840.407C537.253 838.621 536.546 836.954 535.282 835.723C535.393 835.215 535.441 834.691 535.441 834.175C535.441 830.015 532.056 826.634 527.892 826.634C523.728 826.634 520.343 830.015 520.343 834.175C520.343 835.398 520.637 836.573 521.193 837.644C520.009 838.637 519.31 840.089 519.31 841.677C519.31 844.598 521.686 846.972 524.61 846.972H527.121V850.544H514.073V824.054C514.073 823.823 514.01 823.601 513.882 823.403L503.353 807.224L503.345 807.216C503.322 807.176 503.282 807.137 503.25 807.097C503.234 807.073 503.21 807.049 503.194 807.026C503.179 807.01 503.155 806.994 503.131 806.978C503.091 806.946 503.051 806.907 503.004 806.875C503.004 806.875 503.004 806.875 502.996 806.867C502.972 806.851 502.956 806.843 502.932 806.835C502.885 806.811 502.845 806.788 502.797 806.764C502.765 806.748 502.726 806.74 502.694 806.732C502.654 806.724 502.622 806.708 502.583 806.7C502.543 806.692 502.511 806.692 502.471 806.684C502.432 806.676 502.392 806.676 502.352 806.676C502.32 806.676 502.289 806.684 502.257 806.684C502.209 806.684 502.169 806.692 502.122 806.7C502.09 806.708 502.058 806.716 502.034 806.724C501.995 806.74 501.947 806.748 501.907 806.764C501.867 806.78 501.828 806.803 501.796 806.819C501.764 806.835 501.74 806.843 501.708 806.859L501.701 806.867C501.661 806.891 501.629 806.922 501.589 806.954C501.565 806.978 501.534 806.994 501.51 807.018C501.494 807.034 501.478 807.057 501.454 807.081C501.422 807.121 501.383 807.161 501.359 807.2L501.351 807.208L493.015 820.013V815.099C493.015 814.917 492.975 814.734 492.896 814.575L489.32 807.335C489.312 807.327 489.304 807.311 489.304 807.304C489.288 807.264 489.264 807.232 489.241 807.192C489.217 807.161 489.201 807.129 489.177 807.105C489.153 807.073 489.121 807.042 489.09 807.018C489.066 806.994 489.042 806.962 489.01 806.938C488.978 806.915 488.947 806.891 488.907 806.867C488.875 806.843 488.843 806.827 488.811 806.811C488.796 806.803 488.788 806.795 488.78 806.788C488.756 806.772 488.724 806.772 488.7 806.756C488.668 806.74 488.637 806.732 488.597 806.716C488.557 806.7 488.517 806.692 488.478 806.684C488.446 806.676 488.406 806.668 488.374 806.668C488.335 806.668 488.295 806.661 488.255 806.661C488.215 806.661 488.176 806.66 488.136 806.668C488.104 806.668 488.064 806.676 488.033 806.684C487.993 806.692 487.953 806.7 487.913 806.716C487.882 806.724 487.85 806.74 487.81 806.756C487.786 806.764 487.755 806.772 487.731 806.788C487.715 806.795 487.707 806.803 487.699 806.811C487.667 806.827 487.635 806.851 487.604 806.867C487.572 806.891 487.532 806.915 487.508 806.938C487.476 806.962 487.453 806.986 487.429 807.018C487.397 807.049 487.373 807.073 487.341 807.105C487.318 807.137 487.302 807.161 487.278 807.192C487.254 807.224 487.23 807.264 487.214 807.296C487.206 807.304 487.198 807.319 487.198 807.327L484.258 813.281L468.794 796.086V778.685C468.794 778.662 468.786 778.638 468.786 778.606C468.786 778.558 468.778 778.511 468.771 778.463C468.763 778.423 468.755 778.384 468.739 778.344C468.731 778.312 468.723 778.281 468.715 778.257L463.232 763.777V755.267C463.232 755.251 463.232 755.235 463.224 755.227C463.224 755.211 463.224 755.203 463.224 755.188L457.661 675.009C457.661 674.993 457.654 674.985 457.654 674.969C457.646 674.922 457.638 674.882 457.63 674.842C457.622 674.811 457.614 674.771 457.606 674.739C457.59 674.699 457.574 674.66 457.558 674.62C457.542 674.588 457.534 674.557 457.518 674.525C457.495 674.485 457.471 674.453 457.447 674.414C457.431 674.382 457.407 674.358 457.391 674.334C457.367 674.303 457.336 674.271 457.304 674.247C457.28 674.223 457.256 674.199 457.224 674.176C457.193 674.152 457.161 674.128 457.129 674.112C457.097 674.088 457.065 674.064 457.026 674.049C456.994 674.033 456.97 674.025 456.938 674.009C456.899 673.993 456.851 673.969 456.811 673.961C456.787 673.953 456.756 673.945 456.732 673.945C456.684 673.937 456.636 673.921 456.581 673.921C456.573 673.921 456.565 673.914 456.549 673.914C456.509 673.914 456.477 673.914 456.438 673.914C456.422 673.914 456.398 673.914 456.382 673.914C456.374 673.914 456.374 673.914 456.366 673.914C456.136 673.929 455.921 674.017 455.746 674.152C455.738 674.16 455.73 674.16 455.723 674.168C455.675 674.207 455.635 674.247 455.595 674.287C455.579 674.303 455.564 674.318 455.548 674.334C455.516 674.366 455.492 674.406 455.468 674.445C455.452 674.469 455.428 674.501 455.413 674.525C455.397 674.557 455.381 674.596 455.365 674.628C455.349 674.668 455.333 674.699 455.325 674.739C455.317 674.771 455.309 674.811 455.301 674.842C455.293 674.882 455.285 674.93 455.277 674.969C455.277 674.985 455.27 674.993 455.27 675.009L449.707 755.188C449.707 755.203 449.707 755.211 449.707 755.227C449.707 755.243 449.699 755.259 449.699 755.267V763.777L444.216 778.257C444.208 778.288 444.2 778.32 444.192 778.344C444.184 778.384 444.168 778.423 444.16 778.463C444.152 778.511 444.152 778.558 444.145 778.606C444.145 778.63 444.137 778.654 444.137 778.685V796.086L428.927 812.995L426.13 807.327C426.122 807.319 426.114 807.304 426.114 807.296C426.098 807.256 426.074 807.224 426.051 807.184C426.027 807.153 426.011 807.121 425.987 807.097C425.963 807.065 425.931 807.042 425.9 807.01C425.876 806.986 425.844 806.954 425.82 806.93C425.788 806.907 425.757 806.883 425.725 806.859C425.693 806.835 425.661 806.819 425.629 806.795C425.613 806.788 425.606 806.78 425.598 806.772C425.574 806.756 425.542 806.756 425.518 806.74C425.486 806.724 425.455 806.716 425.415 806.7C425.375 806.684 425.335 806.676 425.296 806.668C425.264 806.66 425.224 806.653 425.192 806.653C425.153 806.653 425.113 806.645 425.073 806.645C425.033 806.645 424.994 806.645 424.954 806.653C424.914 806.653 424.882 806.66 424.851 806.668C424.811 806.676 424.771 806.684 424.731 806.7C424.7 806.708 424.66 806.724 424.628 806.74C424.604 806.748 424.572 806.756 424.549 806.772C424.533 806.78 424.525 806.788 424.517 806.795C424.485 806.811 424.453 806.835 424.422 806.859C424.39 806.883 424.358 806.899 424.326 806.922C424.294 806.946 424.271 806.978 424.239 807.002C424.215 807.026 424.183 807.057 424.159 807.089C424.135 807.121 424.12 807.153 424.096 807.176C424.072 807.208 424.048 807.248 424.032 807.28C424.024 807.288 424.016 807.304 424.016 807.311L420.44 814.551C420.361 814.718 420.321 814.893 420.321 815.075V850.497H408.036V595.926C408.036 595.799 408.012 595.688 407.98 595.569C407.972 595.545 407.972 595.529 407.964 595.513C407.925 595.41 407.869 595.307 407.806 595.22C407.79 595.204 407.782 595.188 407.766 595.172C407.694 595.085 407.607 595.005 407.512 594.942C407.504 594.942 407.504 594.934 407.496 594.934C407.4 594.87 407.289 594.823 407.178 594.791C407.17 594.791 407.154 594.783 407.146 594.775C407.138 594.775 407.13 594.775 407.13 594.775C407.043 594.751 406.947 594.735 406.852 594.735H380.764H354.676C354.58 594.735 354.485 594.751 354.398 594.775C354.39 594.775 354.382 594.775 354.382 594.775C354.374 594.775 354.358 594.783 354.35 594.791C354.239 594.823 354.127 594.87 354.032 594.934C354.024 594.934 354.024 594.942 354.016 594.942C353.921 595.005 353.841 595.085 353.762 595.172C353.746 595.188 353.73 595.204 353.722 595.22C353.659 595.307 353.603 595.41 353.563 595.513C353.555 595.529 353.547 595.553 353.547 595.577C353.516 595.688 353.492 595.807 353.492 595.934V850.56H336.018V647.733C336.018 647.074 335.485 646.542 334.826 646.542H327.674V616.241C327.674 615.582 327.141 615.05 326.482 615.05H319.33V610.946V596.125V582.931C319.33 582.272 318.798 581.74 318.138 581.74H314.427V573.143C314.427 572.484 313.895 571.952 313.235 571.952H309.524V563.355C309.524 562.696 308.992 562.164 308.332 562.164H303.429H298.526C297.867 562.164 297.334 562.696 297.334 563.355V571.952H293.623C292.964 571.952 292.431 572.484 292.431 573.143V581.74H288.72C288.061 581.74 287.528 582.272 287.528 582.931V596.125V610.946V615.05H280.377C279.717 615.05 279.185 615.582 279.185 616.241V646.542H272.033C271.373 646.542 270.841 647.074 270.841 647.733V850.56H253.486V634.507C253.486 633.848 252.953 633.316 252.294 633.316C251.634 633.316 251.102 633.848 251.102 634.507V636.873L241.36 634.451L237.847 625.148C237.72 624.806 237.434 624.536 237.084 624.433L220.993 619.408H220.985C220.929 619.392 220.882 619.384 220.826 619.376C220.802 619.376 220.778 619.368 220.755 619.36C220.715 619.36 220.675 619.36 220.635 619.36C220.596 619.36 220.556 619.36 220.516 619.36C220.5 619.36 220.476 619.368 220.461 619.368C220.405 619.376 220.341 619.384 220.286 619.4H220.278L204.186 624.425C203.837 624.536 203.558 624.798 203.423 625.14L199.911 634.444L190.169 636.865V634.499C190.169 633.84 189.636 633.308 188.977 633.308C188.317 633.308 187.785 633.84 187.785 634.499V850.536H176.986V830.19V823.839C176.986 823.276 176.588 822.784 176.032 822.672L148.68 817.147V805.978C148.68 805.755 148.617 805.541 148.506 805.351L130.324 775.78C130.205 775.581 130.022 775.423 129.816 775.327L114.701 768.254V758.942C114.701 758.792 114.67 758.657 114.622 758.522C114.622 758.514 114.614 758.506 114.614 758.498C114.558 758.355 114.471 758.228 114.368 758.117C114.368 758.117 114.368 758.109 114.36 758.109L114.352 758.101L108.106 751.758C108.106 751.758 108.098 751.758 108.098 751.75C108.098 751.75 108.098 751.742 108.09 751.742C108.034 751.687 107.963 751.663 107.899 751.615C107.836 751.568 107.772 751.512 107.701 751.488C107.629 751.456 107.55 751.456 107.47 751.441C107.399 751.425 107.327 751.401 107.256 751.401C107.168 751.401 107.089 751.433 107.009 751.448C106.946 751.464 106.874 751.464 106.811 751.488C106.731 751.52 106.676 751.576 106.604 751.623C106.541 751.663 106.477 751.687 106.421 751.742C106.421 751.742 106.421 751.75 106.413 751.75C106.413 751.75 106.405 751.75 106.405 751.758L100.16 758.101L100.152 758.109C100.152 758.109 100.152 758.117 100.144 758.117C100.04 758.228 99.9529 758.355 99.8973 758.498C99.8973 758.506 99.8894 758.514 99.8894 758.522C99.8417 758.649 99.8099 758.792 99.8099 758.942V768.254L84.6958 775.327C84.4812 775.423 84.3064 775.581 84.1872 775.78L66.0058 805.351C65.8866 805.541 65.8309 805.755 65.8309 805.978V817.147L38.4793 822.672C37.9231 822.784 37.5258 823.276 37.5258 823.839V830.19V850.552H26.1703V848.417C26.4961 848.417 26.7743 848.409 26.9809 848.393C30.1753 848.234 32.6467 845.503 32.4877 842.312C32.3924 840.328 31.2878 838.557 29.5793 837.581C28.9198 835.787 27.2193 834.58 25.2644 834.58C22.7216 834.58 20.6555 836.644 20.6555 839.184C20.6555 839.264 20.6555 839.335 20.6634 839.415C18.8119 840.018 17.4769 841.756 17.4769 843.797C17.4769 846.337 19.543 848.401 22.0859 848.401L23.0315 848.409C23.2699 848.409 23.5321 848.417 23.7943 848.417V850.552H13.6785C13.019 850.552 12.4866 851.084 12.4866 851.743C12.4866 852.402 13.019 852.934 13.6785 852.934H188.977H220.627H252.278H272.017H280.361H288.704H303.405H318.106H326.45H334.794H542.418C543.078 852.934 543.61 852.402 543.61 851.743C543.618 851.084 543.086 850.552 542.426 850.552ZM524.626 844.598C523.013 844.598 521.71 843.289 521.71 841.685C521.71 840.574 522.345 839.565 523.363 839.073C523.68 838.914 523.919 838.629 523.998 838.279C524.078 837.93 524.006 837.565 523.792 837.287C523.108 836.382 522.743 835.31 522.743 834.183C522.743 831.341 525.063 829.023 527.908 829.023C530.753 829.023 533.073 831.341 533.073 834.183C533.073 834.723 532.986 835.255 532.819 835.779C532.66 836.263 532.827 836.787 533.232 837.097C534.281 837.898 534.885 839.113 534.885 840.423C534.885 842.733 533.002 844.614 530.697 844.614H524.626V844.598ZM435.062 850.354V830.539C435.062 827.904 436.246 826.332 437.017 825.586C437.779 826.324 438.964 827.904 438.964 830.539V850.354H435.062ZM456.477 833.088H459.855V850.354H456.477H453.1V833.088H456.477ZM453.1 830.706V815.131C453.1 810.646 455.349 808.161 456.477 807.192C457.598 808.161 459.855 810.661 459.855 815.131V830.706H456.477H453.1ZM473.999 850.354V830.539C473.999 827.904 475.183 826.332 475.954 825.586C476.717 826.324 477.901 827.904 477.901 830.539V850.354H473.999ZM493.031 824.411L502.368 810.066L511.705 824.411V850.354H493.031V824.411ZM485.482 816.004C485.593 815.909 485.689 815.798 485.76 815.655L488.263 810.574L490.647 815.401V824.07V850.346H485.482V816.004ZM468.794 799.675L483.098 815.583V850.354H480.277V830.539C480.277 825.356 476.717 823.133 476.566 823.038C476.55 823.03 476.526 823.022 476.51 823.006C476.471 822.982 476.439 822.966 476.399 822.95C476.367 822.934 476.328 822.926 476.296 822.911C476.256 822.903 476.224 822.887 476.185 822.879C476.145 822.871 476.105 822.863 476.065 822.863C476.026 822.863 475.994 822.855 475.954 822.855C475.914 822.855 475.875 822.855 475.843 822.863C475.803 822.863 475.763 822.871 475.724 822.879C475.684 822.887 475.652 822.895 475.612 822.903C475.573 822.911 475.541 822.926 475.501 822.942C475.461 822.958 475.43 822.974 475.39 822.998C475.374 823.006 475.35 823.014 475.326 823.03C475.175 823.125 471.615 825.348 471.615 830.531V850.346H468.794V799.675ZM456.477 692.331L458.257 717.988H456.477H454.697L456.477 692.331ZM454.531 720.369H456.477H458.424L460.761 754.1H456.477H452.194L454.531 720.369ZM452.027 764.444C452.075 764.309 452.107 764.166 452.107 764.023V756.481H456.477H460.848V764.023C460.848 764.166 460.872 764.309 460.927 764.444L465.878 777.518H456.477H447.077L452.027 764.444ZM446.544 779.9H456.477H466.41V850.354H462.239V815.123C462.239 807.891 457.304 804.803 457.097 804.676C457.081 804.668 457.058 804.66 457.042 804.652C457.002 804.628 456.962 804.612 456.922 804.596C456.891 804.581 456.851 804.573 456.819 804.557C456.779 804.549 456.748 804.533 456.708 804.525C456.668 804.517 456.628 804.509 456.597 804.509C456.557 804.509 456.517 804.501 456.485 804.501C456.454 804.501 456.406 804.501 456.374 804.509C456.334 804.509 456.295 804.517 456.263 804.525C456.223 804.533 456.183 804.541 456.152 804.557C456.12 804.565 456.08 804.581 456.048 804.596C456.009 804.612 455.969 804.628 455.937 804.652C455.921 804.66 455.897 804.668 455.881 804.684C455.675 804.811 450.74 807.891 450.74 815.131V850.362H446.568V779.9H446.544ZM429.857 815.583L444.16 799.675V850.354H441.339V830.539C441.339 825.356 437.779 823.133 437.628 823.038C437.613 823.03 437.589 823.022 437.573 823.014C437.533 822.99 437.493 822.974 437.454 822.958C437.422 822.942 437.382 822.934 437.35 822.918C437.311 822.911 437.279 822.895 437.239 822.887C437.199 822.879 437.16 822.871 437.128 822.871C437.088 822.871 437.056 822.863 437.017 822.863C436.977 822.863 436.937 822.863 436.905 822.871C436.866 822.871 436.826 822.879 436.786 822.887C436.746 822.895 436.715 822.903 436.675 822.918C436.635 822.926 436.603 822.942 436.564 822.958C436.524 822.974 436.492 822.99 436.452 823.014C436.429 823.022 436.413 823.03 436.389 823.045C436.238 823.141 432.678 825.363 432.678 830.547V850.362H429.857V815.583ZM422.705 815.401L425.089 810.574L427.473 815.401V850.346H422.705V815.401ZM394.932 850.425H387.415L405.652 817.766V830.984L394.932 850.425ZM405.652 835.922V850.425H397.65L405.652 835.922ZM386.581 847.036V834.286L405.652 799.706V812.876L386.581 847.036ZM386.581 829.357V816.187L405.652 781.607V794.777L386.581 829.357ZM386.581 811.249V798.079L405.652 763.499V776.669L386.581 811.249ZM386.581 793.149V779.979L405.652 745.399V758.569L386.581 793.149ZM386.581 775.042V761.872L405.652 727.292V740.462L386.581 775.042ZM386.581 756.934V743.764L405.652 709.184V722.354L386.581 756.934ZM386.581 738.826V725.656L405.652 691.076V704.246L386.581 738.826ZM386.581 720.727V707.557L405.652 672.977V686.147L386.581 720.727ZM386.581 702.619V689.449L405.652 654.869V668.039L386.581 702.619ZM386.581 684.511V671.341L405.652 636.77V649.939L386.581 684.511ZM386.581 666.404V653.234L405.652 618.654V631.824L386.581 666.404ZM384.689 633.634H380.756H376.822L359.785 602.745H380.756H401.727L384.689 633.634ZM380.756 844.797H377.315V841.621H380.756H384.197V844.797H380.756ZM384.197 847.178V850.425H377.307V847.178H380.748H384.197ZM380.756 839.24H377.315V836.065H380.756H384.197V839.24H380.756ZM380.756 833.683H377.315V830.508H380.756H384.197V833.683H380.756ZM380.756 828.126H377.315V824.951H380.756H384.197V828.126H380.756ZM380.756 822.569H377.315V819.394H380.756H384.197V822.569H380.756ZM380.756 817.012H377.315V813.837H380.756H384.197V817.012H380.756ZM380.756 811.455H377.315V808.28H380.756H384.197V811.455H380.756ZM380.756 805.898H377.315V802.723H380.756H384.197V805.898H380.756ZM380.756 800.341H377.315V797.166H380.756H384.197V800.341H380.756ZM380.756 794.785H377.315V791.609H380.756H384.197V794.785H380.756ZM380.756 789.228H377.315V786.052H380.756H384.197V789.228H380.756ZM380.756 783.671H377.315V780.495H380.756H384.197V783.671H380.756ZM380.756 778.114H377.315V774.938H380.756H384.197V778.114H380.756ZM380.756 772.557H377.315V769.381H380.756H384.197V772.557H380.756ZM380.756 767H377.315V763.825H380.756H384.197V767H380.756ZM380.756 761.443H377.315V758.268H380.756H384.197V761.443H380.756ZM380.756 755.886H377.315V752.711H380.756H384.197V755.886H380.756ZM380.756 750.329H377.315V747.154H380.756H384.197V750.329H380.756ZM380.756 744.772H377.315V741.597H380.756H384.197V744.772H380.756ZM380.756 739.215H377.315V736.04H380.756H384.197V739.215H380.756ZM380.756 733.658H377.315V730.483H380.756H384.197V733.658H380.756ZM380.756 728.101H377.315V724.926H380.756H384.197V728.101H380.756ZM380.756 722.545H377.315V719.369H380.756H384.197V722.545H380.756ZM380.756 716.988H377.315V713.812H380.756H384.197V716.988H380.756ZM380.756 711.431H377.315V708.255H380.756H384.197V711.431H380.756ZM380.756 705.874H377.315V702.698H380.756H384.197V705.874H380.756ZM380.756 700.317H377.315V697.141H380.756H384.197V700.317H380.756ZM380.756 694.76H377.315V691.585H380.756H384.197V694.76H380.756ZM380.756 689.203H377.315V686.028H380.756H384.197V689.203H380.756ZM380.756 683.646H377.315V680.471H380.756H384.197V683.646H380.756ZM380.756 678.089H377.315V674.914H380.756H384.197V678.089H380.756ZM380.756 672.532H377.315V669.357H380.756H384.197V672.532H380.756ZM380.756 666.975H377.315V663.8H380.756H384.197V666.975H380.756ZM380.756 661.418H377.315V658.243H380.756H384.197V661.418H380.756ZM380.756 655.861H377.315V652.686H380.756H384.197V655.861H380.756ZM380.756 650.305H377.315V647.129H380.756H384.197V650.305H380.756ZM380.756 644.748H377.315V641.572H380.756H384.197V644.748H380.756ZM380.756 639.191H377.315V636.015H380.756H384.197V639.191H380.756ZM405.652 613.724L386.581 648.304V635.134L405.652 600.554V613.724ZM380.756 597.117H404.826L403.038 600.364H380.756H358.474L356.686 597.117H380.756ZM355.86 600.554L374.931 635.134V648.304L355.86 613.724V600.554ZM355.86 618.662L374.931 653.242V666.412L355.86 631.832V618.662ZM355.86 636.762L374.931 671.334V684.503L355.86 649.924V636.762ZM355.86 654.869L374.931 689.449V702.619L355.86 668.039V654.869ZM355.86 672.977L374.931 707.557V720.727L355.86 686.147V672.977ZM355.86 691.084L374.931 725.664V738.834L355.86 704.254V691.084ZM355.86 709.184L374.931 743.764V756.934L355.86 722.354V709.184ZM355.86 727.292L374.931 761.872V775.042L355.86 740.462V727.292ZM355.86 745.399L374.931 779.979V793.149L355.86 758.569V745.399ZM355.86 763.507L374.931 798.087V811.257L355.86 776.677V763.507ZM355.86 781.607L374.931 816.187V829.357L355.86 794.777V781.607ZM355.86 799.714L374.931 834.294V847.043L355.86 812.892V799.714ZM355.86 817.774L374.097 850.433H366.579L355.86 831V817.774ZM355.86 835.93L363.854 850.433H355.86V835.93ZM51.3367 850.425V834.747H56.9945V850.425H51.3367ZM113.621 799.222H123.8V809.55H113.621C112.961 809.55 112.429 810.082 112.429 810.741V850.433H107.264H102.098V810.741C102.098 810.082 101.566 809.55 100.906 809.55H90.7271V799.222H100.906C101.566 799.222 102.098 798.69 102.098 798.031V787.862H112.437V798.031C112.429 798.682 112.961 799.222 113.621 799.222ZM114.813 837.922H146.296V850.425H114.813V837.922ZM157.517 850.425V834.747H163.175V850.425H157.517ZM148.68 819.568L174.602 824.8V828.729L148.68 823.49V819.568ZM148.68 825.927L174.602 831.167V850.433H165.559V833.564C165.559 832.905 165.026 832.373 164.367 832.373H156.325C155.665 832.373 155.133 832.905 155.133 833.564V850.433H148.68V825.927ZM107.256 754.283L110.665 757.744H107.256H103.847L107.256 754.283ZM102.194 760.125H107.256H112.318V767.135L107.764 764.999C107.748 764.992 107.732 764.991 107.725 764.984C107.677 764.968 107.637 764.952 107.589 764.936C107.558 764.928 107.534 764.92 107.502 764.912C107.454 764.904 107.407 764.896 107.359 764.896C107.327 764.896 107.303 764.888 107.272 764.888C107.224 764.888 107.176 764.888 107.129 764.896C107.097 764.896 107.073 764.904 107.041 764.904C106.993 764.912 106.954 764.928 106.906 764.936C106.874 764.944 106.842 764.96 106.811 764.968C106.795 764.976 106.771 764.976 106.755 764.992L102.202 767.127V760.125H102.194ZM68.2149 825.07C68.3738 824.816 68.4374 824.514 68.3818 824.197C68.35 824.054 68.2943 823.919 68.2149 823.8V818.711C68.3738 818.457 68.4374 818.155 68.3818 817.838C68.35 817.695 68.2943 817.56 68.2149 817.441V806.303L86.0308 777.32L107.256 767.397L128.481 777.328L146.296 806.311V817.449C146.225 817.568 146.161 817.703 146.13 817.846C146.066 818.155 146.138 818.465 146.296 818.719V823.808C146.225 823.927 146.161 824.062 146.13 824.204C146.066 824.514 146.138 824.824 146.296 825.078V835.549H114.813V811.932H124.992C125.652 811.932 126.184 811.4 126.184 810.741V798.031C126.184 797.372 125.652 796.841 124.992 796.841H114.813V786.671C114.813 786.013 114.28 785.481 113.621 785.481H100.899C100.239 785.481 99.7066 786.013 99.7066 786.671V796.841H89.5272C88.8676 796.841 88.3352 797.372 88.3352 798.031V810.741C88.3352 811.4 88.8676 811.932 89.5272 811.932H99.7066V835.549H68.2228V825.07H68.2149ZM68.2149 837.922H99.6986V850.425H68.2149V837.922ZM39.9097 824.808L65.8309 819.576V823.506L39.9097 828.745V824.808ZM39.9097 831.167L65.8309 825.927V850.425H59.3785V833.556C59.3785 832.897 58.846 832.365 58.1865 832.365H50.1447C49.4851 832.365 48.9527 832.897 48.9527 833.556V850.425H39.9097V831.167ZM23.0394 846.027L22.0779 846.019C20.8542 846.019 19.8529 845.019 19.8529 843.797C19.8529 842.574 20.8462 841.582 22.07 841.574C22.4593 841.574 22.8249 841.383 23.0474 841.058C23.2699 840.74 23.3176 840.327 23.1825 839.962C23.0871 839.708 23.0394 839.446 23.0394 839.184C23.0394 837.962 24.0407 836.962 25.2644 836.962C26.3054 836.962 27.1954 837.668 27.4259 838.676C27.5133 839.034 27.7596 839.335 28.0934 839.494C29.2694 840.026 30.0402 841.153 30.1038 842.431C30.1992 844.313 28.745 845.916 26.8617 846.011C26.1465 846.051 24.1996 846.035 23.0394 846.027ZM319.306 617.423H325.266V623.846L319.306 620.44V617.423ZM319.306 623.179L325.266 626.584V635.555L319.306 632.149V623.179ZM319.306 641.374V634.896L325.266 638.302V647.264L319.306 643.859V641.374ZM319.306 646.597L325.266 650.003V658.965L319.306 655.56V646.597ZM319.306 658.307L325.266 661.712V670.675L319.306 667.269V658.307ZM319.306 670.016L325.266 673.421V682.384L319.306 678.978V670.016ZM319.306 681.725L325.266 685.131V694.093L319.306 690.688V681.725ZM319.306 693.434L325.266 696.84V705.802L319.306 702.397V693.434ZM319.306 705.143L325.266 708.549V717.512L319.306 714.106V705.143ZM319.306 716.853L325.266 720.258V729.221L319.306 725.815V716.853ZM319.306 728.562L325.266 731.968V740.93L319.306 737.524V728.562ZM319.306 740.271L325.266 743.677V752.639L319.306 749.234V740.271ZM319.306 751.98L325.266 755.386V764.348L319.306 760.943V751.98ZM319.306 763.69L325.266 767.095V776.058L319.306 772.652V763.69ZM319.306 775.399L325.266 778.804V787.767L319.306 784.361V775.399ZM319.306 787.108L325.266 790.514V799.476L319.306 796.071V787.108ZM319.306 798.817L325.266 802.223V811.185L319.306 807.78V798.817ZM319.306 810.527L325.266 813.932V822.895L319.306 819.489V810.527ZM319.306 822.236L325.266 825.641V834.604L319.306 831.198V822.236ZM319.306 833.945L325.266 837.351V846.313L319.306 842.908V833.945ZM289.904 584.114H292.423V586.329C292.423 586.987 292.956 587.519 293.615 587.519C294.275 587.519 294.807 586.987 294.807 586.329V574.326H297.326V576.54C297.326 577.199 297.859 577.731 298.518 577.731C299.178 577.731 299.71 577.199 299.71 576.54V564.537H303.421H307.132V576.54C307.132 577.199 307.665 577.731 308.324 577.731C308.984 577.731 309.516 577.199 309.516 576.54V574.326H312.035V586.329C312.035 586.987 312.568 587.519 313.227 587.519C313.887 587.519 314.419 586.987 314.419 586.329V584.114H316.938V594.926H309.524V582.923C309.524 582.264 308.992 581.732 308.332 581.732C307.673 581.732 307.14 582.264 307.14 582.923V594.926H303.429H299.718V582.923C299.718 582.264 299.186 581.732 298.526 581.732C297.867 581.732 297.334 582.264 297.334 582.923V594.926H289.92V584.114H289.904ZM289.904 597.315H303.413H316.922V609.755H303.413H289.904V597.315ZM281.561 617.423H287.52V620.44L281.561 623.846V617.423ZM281.561 626.584L287.52 623.179V632.149L281.561 635.555V626.584ZM281.561 638.294L287.52 634.888V641.366V643.851L281.561 647.256V638.294ZM281.561 650.003L287.52 646.597V655.56L281.561 658.965V650.003ZM281.561 661.712L287.52 658.307V667.269L281.561 670.675V661.712ZM281.561 673.421L287.52 670.016V678.978L281.561 682.384V673.421ZM281.561 685.131L287.52 681.725V690.688L281.561 694.093V685.131ZM281.561 696.84L287.52 693.434V702.397L281.561 705.802V696.84ZM281.561 708.549L287.52 705.143V714.106L281.561 717.512V708.549ZM281.561 720.258L287.52 716.853V725.815L281.561 729.221V720.258ZM281.561 731.968L287.52 728.562V737.524L281.561 740.93V731.968ZM281.561 743.677L287.52 740.271V749.234L281.561 752.639V743.677ZM281.561 755.386L287.52 751.98V760.943L281.561 764.348V755.386ZM281.561 767.095L287.52 763.69V772.652L281.561 776.058V767.095ZM281.561 778.804L287.52 775.399V784.361L281.561 787.767V778.804ZM281.561 790.514L287.52 787.108V796.071L281.561 799.476V790.514ZM281.561 802.223L287.52 798.817V807.78L281.561 811.185V802.223ZM281.561 813.932L287.52 810.527V819.489L281.561 822.895V813.932ZM281.561 825.641L287.52 822.236V831.198L281.561 834.604V825.641ZM281.561 837.351L287.52 833.945V842.908L281.561 846.313V837.351ZM205.45 626.529L220.627 621.782L235.805 626.529L245.531 652.289H237.919V645.708C237.919 645.049 237.386 644.517 236.727 644.517C236.067 644.517 235.535 645.049 235.535 645.708V647.201L231.57 645.343V632.626C231.57 631.967 231.037 631.435 230.378 631.435C229.718 631.435 229.186 631.967 229.186 632.626V634.118L225.22 632.26V627.87C225.22 627.212 224.688 626.68 224.028 626.68C223.369 626.68 222.836 627.212 222.836 627.87V629.403L221.12 628.633C221.112 628.625 221.104 628.625 221.088 628.625C221.041 628.609 221.001 628.593 220.953 628.577C220.921 628.569 220.89 628.561 220.866 628.553C220.826 628.545 220.778 628.537 220.739 628.537C220.707 628.537 220.675 628.529 220.635 628.529C220.596 628.529 220.556 628.537 220.516 628.537C220.476 628.537 220.445 628.545 220.405 628.553C220.373 628.561 220.333 628.569 220.302 628.585C220.262 628.601 220.214 628.609 220.174 628.625C220.166 628.633 220.159 628.633 220.143 628.633L218.426 629.403V627.87C218.426 627.212 217.894 626.68 217.234 626.68C216.575 626.68 216.042 627.212 216.042 627.87V632.26L212.077 634.118V632.626C212.077 631.967 211.545 631.435 210.885 631.435C210.226 631.435 209.693 631.967 209.693 632.626V645.343L205.728 647.201V645.708C205.728 645.049 205.195 644.517 204.536 644.517C203.876 644.517 203.344 645.049 203.344 645.708V652.289H195.731L205.45 626.529ZM244.554 802.787L244.212 811.955H237.927V802.787H244.554ZM237.919 800.405V791.236H244.991L244.649 800.405H237.919ZM244.117 814.329L243.775 823.498H237.919V814.329H244.117ZM243.68 825.879L243.338 835.048H237.919V825.879H243.68ZM237.919 788.855V779.686H245.42L245.079 788.855H237.919ZM237.919 777.304V763.825H246.016L245.508 777.304H237.919ZM243.577 719.568L243.235 728.737H237.919V719.568H243.577ZM237.919 717.186V708.017H244.014L243.672 717.186H237.919ZM243.14 731.11L242.798 740.279H237.919V731.11H243.14ZM242.711 742.661L242.369 751.83H237.927V742.661H242.711ZM242.273 754.211L242.003 761.443H237.919V754.211H242.273ZM237.919 705.636V696.467H244.443L244.101 705.636H237.919ZM237.919 694.085V684.916H244.88L244.538 694.085H237.919ZM237.919 682.535V673.366H245.317L244.975 682.535H237.919ZM237.919 670.984V661.815H245.746L245.404 670.984H237.919ZM237.919 659.434V654.671H246.016L245.833 659.434H237.919ZM203.352 661.815V670.984H195.866L195.517 661.815H203.352ZM195.429 659.434L195.246 654.671H203.344V659.434H195.429ZM203.352 673.366V682.535H196.303L195.962 673.366H203.352ZM203.352 684.916V694.085H196.732L196.391 684.916H203.352ZM203.352 696.467V705.636H197.17L196.828 696.467H203.352ZM198.902 751.83L198.56 742.661H203.352V751.83H198.902ZM203.352 754.211V761.443H199.267L198.997 754.211H203.352ZM198.473 740.279L198.131 731.11H203.352V740.279H198.473ZM198.036 728.729L197.694 719.56H203.352V728.729H198.036ZM197.599 717.186L197.257 708.017H203.352V717.186H197.599ZM203.352 763.825V777.304H195.763L195.254 763.825H203.352ZM203.352 779.686V788.855H196.192L195.85 779.686H203.352ZM197.058 811.948L196.717 802.779H203.352V811.948H197.058ZM203.352 814.329V823.498H197.495L197.154 814.329H203.352ZM196.629 800.405L196.287 791.236H203.36V800.405H196.629ZM197.583 825.879H203.352V835.048H197.932L197.583 825.879ZM190.169 850.552V639.326L198.894 637.158L192.894 653.059C192.878 653.107 192.871 653.154 192.855 653.202C192.847 653.234 192.839 653.258 192.831 653.289C192.815 653.369 192.815 653.448 192.815 653.536L196.876 761.451H194.007C193.681 761.451 193.371 761.586 193.149 761.816C192.926 762.046 192.807 762.364 192.815 762.689L193.84 789.863C193.832 789.926 193.824 789.99 193.824 790.053C193.824 790.148 193.84 790.244 193.864 790.339L194.277 801.413C194.269 801.477 194.261 801.54 194.261 801.604C194.261 801.699 194.277 801.794 194.301 801.889L194.714 812.964C194.706 813.027 194.698 813.091 194.698 813.154C194.698 813.249 194.714 813.345 194.738 813.44L195.151 824.514C195.143 824.578 195.135 824.641 195.135 824.705C195.135 824.8 195.151 824.895 195.175 824.99L195.588 836.065C195.58 836.128 195.572 836.192 195.572 836.255C195.572 836.35 195.588 836.446 195.612 836.533L196.136 850.56H190.169V850.552ZM198.512 850.552L198.02 837.438H203.352V850.552H198.512ZM205.736 850.552V649.828L209.701 647.971V850.544H205.736V850.552ZM212.085 850.552V636.754L216.05 634.896V850.544H212.085V850.552ZM220.635 850.552H218.426V632.014L220.635 631.03L222.836 632.014V850.552H220.635ZM225.22 850.552V634.896L229.186 636.754V850.552H225.22ZM231.57 850.552V647.979L235.535 649.836V850.552H231.57ZM237.919 850.552V837.438H243.251L242.758 850.552H237.919ZM245.142 850.552L245.667 836.525C245.69 836.438 245.706 836.342 245.706 836.239C245.706 836.176 245.698 836.112 245.69 836.049L246.104 824.975C246.127 824.887 246.143 824.792 246.143 824.697C246.143 824.633 246.135 824.57 246.127 824.506L246.541 813.432C246.565 813.345 246.58 813.249 246.58 813.146C246.58 813.083 246.572 813.019 246.565 812.956L246.978 801.882C247.002 801.794 247.018 801.699 247.018 801.604C247.018 801.54 247.01 801.477 247.002 801.413L247.415 790.339C247.439 790.252 247.455 790.156 247.455 790.053C247.455 789.99 247.447 789.926 247.439 789.863L248.464 762.689C248.48 762.364 248.352 762.054 248.13 761.816C247.907 761.586 247.598 761.451 247.272 761.451H244.403L248.464 653.536C248.464 653.456 248.464 653.377 248.448 653.289C248.44 653.258 248.432 653.234 248.424 653.202C248.416 653.154 248.4 653.107 248.384 653.059L242.385 637.158L251.11 639.326V850.544H245.142V850.552ZM273.217 850.552V648.915H279.177V850.552H273.217ZM281.561 850.552V849.06L287.52 845.654V850.544H281.561V850.552ZM303.413 850.552H289.904V641.374V612.136H303.413H316.922V641.374V850.552H303.413ZM319.306 850.552V845.662L325.266 849.068V850.56H319.306V850.552ZM327.65 850.552V648.915H333.61V850.552H327.65ZM337.948 540.087C337.948 539.222 338.648 538.523 339.514 538.523C340.38 538.523 341.079 539.222 341.079 540.087C341.079 540.952 340.38 541.651 339.514 541.651C338.656 541.651 337.948 540.952 337.948 540.087ZM496.043 574.842C496.043 574.127 496.623 573.556 497.33 573.556C498.045 573.556 498.617 574.135 498.617 574.842C498.617 575.556 498.037 576.128 497.33 576.128C496.623 576.136 496.043 575.556 496.043 574.842ZM229.09 565.053C229.09 564.339 229.67 563.767 230.378 563.767C231.093 563.767 231.665 564.347 231.665 565.053C231.665 565.76 231.085 566.339 230.378 566.339C229.67 566.339 229.09 565.768 229.09 565.053ZM260.32 610.938C260.32 610.223 260.9 609.652 261.607 609.652C262.322 609.652 262.894 610.231 262.894 610.938C262.894 611.644 262.314 612.224 261.607 612.224C260.892 612.232 260.32 611.652 260.32 610.938ZM116.466 537.102C116.466 536.316 117.101 535.681 117.888 535.681C118.675 535.681 119.31 536.316 119.31 537.102C119.31 537.888 118.675 538.523 117.888 538.523C117.101 538.523 116.466 537.888 116.466 537.102ZM426.877 681.582C427.918 681.582 428.768 680.733 428.768 679.693C428.768 678.653 427.918 677.803 426.877 677.803C425.836 677.803 424.986 678.653 424.986 679.693C424.986 680.733 425.836 681.582 426.877 681.582ZM426.877 679.201C427.147 679.201 427.37 679.423 427.37 679.693C427.37 679.963 427.147 680.185 426.877 680.185C426.607 680.185 426.384 679.963 426.384 679.693C426.384 679.423 426.607 679.201 426.877 679.201ZM41.7771 697.697C41.2685 697.276 41.197 696.53 41.6182 696.022C42.0393 695.514 42.7863 695.443 43.2949 695.863L50.2321 701.587L57.1693 695.863C57.6064 695.498 58.2501 695.498 58.6871 695.863L65.6243 701.587L72.5695 695.863C73.0066 695.498 73.6502 695.498 74.0873 695.863L81.7874 702.214C82.296 702.635 82.3675 703.381 81.9463 703.889C81.7079 704.175 81.3662 704.318 81.0245 704.318C80.7543 704.318 80.4921 704.231 80.2696 704.048L73.3244 698.324L66.3793 704.048C65.9422 704.413 65.2985 704.413 64.8615 704.048L57.9243 698.324L50.987 704.048C50.55 704.413 49.9063 704.413 49.4693 704.048L41.7771 697.697ZM408.656 562.799C408.147 562.378 408.076 561.632 408.497 561.124C408.918 560.616 409.665 560.544 410.174 560.965L417.111 566.689L424.048 560.965C424.485 560.6 425.129 560.6 425.566 560.965L432.503 566.689L439.448 560.965C439.885 560.6 440.529 560.6 440.966 560.965L448.666 567.316C449.175 567.737 449.246 568.483 448.825 568.991C448.587 569.277 448.245 569.428 447.903 569.428C447.633 569.428 447.371 569.34 447.148 569.158L440.203 563.434L433.258 569.158C432.821 569.523 432.177 569.523 431.74 569.158L424.803 563.434L417.866 569.158C417.429 569.523 416.785 569.523 416.348 569.158L408.656 562.799ZM133.431 584.003H136.022C135.148 585.114 134.623 586.519 134.623 588.035C134.623 591.655 137.571 594.608 141.203 594.608H157.914C161.538 594.608 164.494 591.663 164.494 588.035C164.494 584.804 162.197 582.137 159.114 581.581C158.304 577.564 154.791 574.643 150.588 574.643C146.408 574.643 142.911 577.572 142.077 581.534C141.791 581.494 141.497 581.478 141.203 581.478C140.718 581.478 140.249 581.534 139.804 581.629H133.431C132.772 581.629 132.239 582.161 132.239 582.82C132.239 583.479 132.772 584.003 133.431 584.003ZM141.203 583.852C141.696 583.852 142.196 583.939 142.673 584.122C143.031 584.257 143.428 584.209 143.746 584.003C144.064 583.788 144.262 583.439 144.278 583.058C144.429 579.676 147.194 577.025 150.588 577.025C153.885 577.025 156.587 579.494 156.881 582.772C156.937 583.375 157.429 583.844 158.033 583.86C160.322 583.923 162.11 585.757 162.11 588.043C162.11 590.353 160.227 592.235 157.914 592.235H141.203C138.89 592.235 137.007 590.353 137.007 588.043C137.007 585.725 138.89 583.852 141.203 583.852ZM122.386 587.75C122.386 587.091 122.918 586.559 123.578 586.559H132.351C133.01 586.559 133.542 587.091 133.542 587.75C133.542 588.408 133.01 588.94 132.351 588.94H123.578C122.918 588.94 122.386 588.408 122.386 587.75ZM132.351 594.132H127.964C127.305 594.132 126.772 593.6 126.772 592.941C126.772 592.282 127.305 591.75 127.964 591.75H132.351C133.01 591.75 133.542 592.282 133.542 592.941C133.542 593.592 133.002 594.132 132.351 594.132ZM137.929 578.223C137.929 577.564 138.461 577.033 139.121 577.033H140.766C141.425 577.033 141.958 577.564 141.958 578.223C141.958 578.882 141.425 579.414 140.766 579.414H139.121C138.461 579.414 137.929 578.882 137.929 578.223ZM474.532 638.04H479.729C478.41 639.556 477.607 641.517 477.607 643.66C477.607 645.081 477.957 646.415 478.576 647.598H474.532C473.872 647.598 473.34 648.129 473.34 648.788C473.34 649.447 473.872 649.979 474.532 649.979H478.918C479.323 649.979 479.681 649.773 479.896 649.471C481.493 651.202 483.781 652.297 486.324 652.297H502.789C507.12 652.297 510.64 648.804 510.64 644.517C510.64 640.223 507.12 636.73 502.789 636.73C501.987 636.73 501.192 636.857 500.429 637.095C499.706 633.539 496.527 630.847 492.729 630.847C489.757 630.847 487.103 632.475 485.76 635.047C484.814 635.102 483.916 635.325 483.074 635.658H474.524C473.864 635.658 473.332 636.19 473.332 636.849C473.332 637.508 473.872 638.04 474.532 638.04ZM486.356 637.413L486.499 637.42C486.984 637.436 487.453 637.135 487.643 636.666C488.47 634.578 490.472 633.229 492.737 633.229C495.749 633.229 498.204 635.65 498.204 638.691L498.196 638.81C498.18 639.246 498.403 639.659 498.776 639.881C499.15 640.104 499.619 640.104 499.992 639.881C500.842 639.381 501.812 639.111 502.789 639.111C505.801 639.111 508.256 641.533 508.256 644.51C508.256 647.486 505.801 649.908 502.789 649.908H486.324C482.836 649.908 479.999 647.105 479.999 643.652C479.999 640.215 482.836 637.413 486.356 637.413ZM465.258 641.572C465.258 640.913 465.791 640.382 466.45 640.382H475.223C475.883 640.382 476.415 640.913 476.415 641.572C476.415 642.231 475.883 642.763 475.223 642.763H466.45C465.799 642.763 465.258 642.231 465.258 641.572ZM469.16 649.979C468.5 649.979 467.968 649.447 467.968 648.788C467.968 648.129 468.5 647.598 469.16 647.598H470.082C470.741 647.598 471.274 648.129 471.274 648.788C471.274 649.447 470.741 649.979 470.082 649.979H469.16ZM481.652 632.038C481.652 631.379 482.184 630.847 482.844 630.847H483.765C484.425 630.847 484.957 631.379 484.957 632.038C484.957 632.697 484.425 633.229 483.765 633.229H482.844C482.184 633.229 481.652 632.697 481.652 632.038ZM63.6934 629.72C63.6934 629.061 64.2258 628.529 64.8853 628.529H66.0137V627.402C66.0137 626.743 66.5461 626.211 67.2057 626.211C67.8652 626.211 68.3976 626.743 68.3976 627.402V628.529H69.526C70.1856 628.529 70.718 629.061 70.718 629.72C70.718 630.379 70.1856 630.911 69.526 630.911H68.3976V632.038C68.3976 632.697 67.8652 633.229 67.2057 633.229C66.5461 633.229 66.0137 632.697 66.0137 632.038V630.911H64.8853C64.2258 630.911 63.6934 630.379 63.6934 629.72ZM154.251 752.901V751.774H153.122C152.463 751.774 151.931 751.242 151.931 750.583C151.931 749.924 152.463 749.392 153.122 749.392H154.251V748.265C154.251 747.606 154.783 747.074 155.443 747.074C156.102 747.074 156.635 747.606 156.635 748.265V749.392H157.763C158.423 749.392 158.955 749.924 158.955 750.583C158.955 751.242 158.423 751.774 157.763 751.774H156.635V752.901C156.635 753.56 156.102 754.092 155.443 754.092C154.783 754.092 154.251 753.56 154.251 752.901ZM41.348 773.748C41.348 773.089 41.8804 772.557 42.54 772.557H43.6684V771.43C43.6684 770.771 44.2008 770.239 44.8603 770.239C45.5199 770.239 46.0523 770.771 46.0523 771.43V772.557H47.1807C47.8402 772.557 48.3727 773.089 48.3727 773.748C48.3727 774.407 47.8402 774.938 47.1807 774.938H46.0523V776.066C46.0523 776.725 45.5199 777.256 44.8603 777.256C44.2008 777.256 43.6684 776.725 43.6684 776.066V774.938H42.54C41.8804 774.938 41.348 774.407 41.348 773.748ZM481.652 701.389V701.15H481.413C480.754 701.15 480.221 700.619 480.221 699.96C480.221 699.301 480.754 698.769 481.413 698.769H481.652V698.531C481.652 697.872 482.184 697.34 482.844 697.34C483.503 697.34 484.036 697.872 484.036 698.531V698.769H484.274C484.934 698.769 485.466 699.301 485.466 699.96C485.466 700.619 484.934 701.15 484.274 701.15H484.036V701.389C484.036 702.047 483.503 702.579 482.844 702.579C482.184 702.579 481.652 702.047 481.652 701.389ZM130.078 665.737V665.499H129.839C129.18 665.499 128.647 664.967 128.647 664.308C128.647 663.649 129.18 663.117 129.839 663.117H130.078V662.879C130.078 662.22 130.61 661.688 131.27 661.688C131.929 661.688 132.462 662.22 132.462 662.879V663.117H132.7C133.36 663.117 133.892 663.649 133.892 664.308C133.892 664.967 133.36 665.499 132.7 665.499H132.462V665.737C132.462 666.396 131.929 666.928 131.27 666.928C130.61 666.928 130.078 666.396 130.078 665.737ZM430.199 748.265C430.199 748.924 429.666 749.456 429.007 749.456H428.768V749.694C428.768 750.353 428.236 750.885 427.576 750.885C426.917 750.885 426.384 750.353 426.384 749.694V749.456H426.146C425.486 749.456 424.954 748.924 424.954 748.265C424.954 747.606 425.486 747.074 426.146 747.074H426.384V746.836C426.384 746.177 426.917 745.645 427.576 745.645C428.236 745.645 428.768 746.177 428.768 746.836V747.074H429.007C429.666 747.074 430.199 747.606 430.199 748.265ZM505.491 770.437V770.199H505.253C504.593 770.199 504.061 769.667 504.061 769.008C504.061 768.349 504.593 767.818 505.253 767.818H505.491V767.579C505.491 766.921 506.023 766.389 506.683 766.389C507.342 766.389 507.875 766.921 507.875 767.579V767.818H508.113C508.773 767.818 509.305 768.349 509.305 769.008C509.305 769.667 508.773 770.199 508.113 770.199H507.875V770.437C507.875 771.096 507.342 771.628 506.683 771.628C506.023 771.628 505.491 771.096 505.491 770.437ZM321.889 610.938V599.689C321.889 599.03 322.421 598.498 323.081 598.498C323.74 598.498 324.273 599.03 324.273 599.689V610.938C324.273 611.597 323.74 612.129 323.081 612.129C322.429 612.129 321.889 611.597 321.889 610.938ZM316.922 576.556V573.135C316.922 572.476 317.455 571.944 318.114 571.944C318.774 571.944 319.306 572.476 319.306 573.135V576.556C319.306 577.215 318.774 577.747 318.114 577.747C317.463 577.747 316.922 577.215 316.922 576.556ZM312.027 566.76V563.339C312.027 562.68 312.56 562.148 313.219 562.148C313.879 562.148 314.411 562.68 314.411 563.339V566.76C314.411 567.419 313.879 567.951 313.219 567.951C312.56 567.951 312.027 567.419 312.027 566.76ZM307.124 559.02V555.599C307.124 554.94 307.657 554.408 308.316 554.408C308.976 554.408 309.508 554.94 309.508 555.599V559.02C309.508 559.679 308.976 560.211 308.316 560.211C307.657 560.211 307.124 559.679 307.124 559.02ZM282.554 610.938V599.689C282.554 599.03 283.086 598.498 283.746 598.498C284.405 598.498 284.938 599.03 284.938 599.689V610.938C284.938 611.597 284.405 612.129 283.746 612.129C283.094 612.129 282.554 611.597 282.554 610.938ZM287.52 576.556V573.135C287.52 572.476 288.053 571.944 288.712 571.944C289.372 571.944 289.904 572.476 289.904 573.135V576.556C289.904 577.215 289.372 577.747 288.712 577.747C288.061 577.747 287.52 577.215 287.52 576.556ZM292.423 566.76V563.339C292.423 562.68 292.956 562.148 293.615 562.148C294.275 562.148 294.807 562.68 294.807 563.339V566.76C294.807 567.419 294.275 567.951 293.615 567.951C292.956 567.951 292.423 567.419 292.423 566.76ZM297.326 559.02V555.599C297.326 554.94 297.859 554.408 298.518 554.408C299.178 554.408 299.71 554.94 299.71 555.599V559.02C299.71 559.679 299.178 560.211 298.518 560.211C297.859 560.211 297.326 559.679 297.326 559.02ZM302.221 559.02V555.599C302.221 554.94 302.754 554.408 303.413 554.408C304.073 554.408 304.605 554.94 304.605 555.599V559.02C304.605 559.679 304.073 560.211 303.413 560.211C302.762 560.211 302.221 559.679 302.221 559.02ZM297.255 620.337V625.1C297.255 625.759 296.722 626.291 296.063 626.291C295.403 626.291 294.871 625.759 294.871 625.1V620.337C294.871 619.678 295.403 619.146 296.063 619.146C296.722 619.146 297.255 619.678 297.255 620.337ZM304.605 620.337V625.1C304.605 625.759 304.073 626.291 303.413 626.291C302.754 626.291 302.221 625.759 302.221 625.1V620.337C302.221 619.678 302.754 619.146 303.413 619.146C304.073 619.146 304.605 619.678 304.605 620.337ZM311.956 620.337V625.1C311.956 625.759 311.423 626.291 310.764 626.291C310.104 626.291 309.572 625.759 309.572 625.1V620.337C309.572 619.678 310.104 619.146 310.764 619.146C311.423 619.146 311.956 619.678 311.956 620.337ZM297.255 636.809V641.572C297.255 642.231 296.722 642.763 296.063 642.763C295.403 642.763 294.871 642.231 294.871 641.572V636.809C294.871 636.15 295.403 635.618 296.063 635.618C296.722 635.618 297.255 636.15 297.255 636.809ZM304.605 636.809V641.572C304.605 642.231 304.073 642.763 303.413 642.763C302.754 642.763 302.221 642.231 302.221 641.572V636.809C302.221 636.15 302.754 635.618 303.413 635.618C304.073 635.618 304.605 636.15 304.605 636.809ZM311.956 636.809V641.572C311.956 642.231 311.423 642.763 310.764 642.763C310.104 642.763 309.572 642.231 309.572 641.572V636.809C309.572 636.15 310.104 635.618 310.764 635.618C311.423 635.618 311.956 636.15 311.956 636.809ZM297.255 653.282V658.045C297.255 658.703 296.722 659.235 296.063 659.235C295.403 659.235 294.871 658.703 294.871 658.045V653.282C294.871 652.623 295.403 652.091 296.063 652.091C296.722 652.091 297.255 652.623 297.255 653.282ZM304.605 653.282V658.045C304.605 658.703 304.073 659.235 303.413 659.235C302.754 659.235 302.221 658.703 302.221 658.045V653.282C302.221 652.623 302.754 652.091 303.413 652.091C304.073 652.091 304.605 652.623 304.605 653.282ZM311.956 653.282V658.045C311.956 658.703 311.423 659.235 310.764 659.235C310.104 659.235 309.572 658.703 309.572 658.045V653.282C309.572 652.623 310.104 652.091 310.764 652.091C311.423 652.091 311.956 652.623 311.956 653.282ZM297.255 669.754V674.517C297.255 675.176 296.722 675.708 296.063 675.708C295.403 675.708 294.871 675.176 294.871 674.517V669.754C294.871 669.095 295.403 668.563 296.063 668.563C296.722 668.563 297.255 669.095 297.255 669.754ZM304.605 669.754V674.517C304.605 675.176 304.073 675.708 303.413 675.708C302.754 675.708 302.221 675.176 302.221 674.517V669.754C302.221 669.095 302.754 668.563 303.413 668.563C304.073 668.563 304.605 669.095 304.605 669.754ZM311.956 669.754V674.517C311.956 675.176 311.423 675.708 310.764 675.708C310.104 675.708 309.572 675.176 309.572 674.517V669.754C309.572 669.095 310.104 668.563 310.764 668.563C311.423 668.563 311.956 669.095 311.956 669.754ZM297.255 686.226V690.989C297.255 691.648 296.722 692.18 296.063 692.18C295.403 692.18 294.871 691.648 294.871 690.989V686.226C294.871 685.567 295.403 685.035 296.063 685.035C296.722 685.035 297.255 685.567 297.255 686.226ZM304.605 686.226V690.989C304.605 691.648 304.073 692.18 303.413 692.18C302.754 692.18 302.221 691.648 302.221 690.989V686.226C302.221 685.567 302.754 685.035 303.413 685.035C304.073 685.035 304.605 685.567 304.605 686.226ZM311.956 686.226V690.989C311.956 691.648 311.423 692.18 310.764 692.18C310.104 692.18 309.572 691.648 309.572 690.989V686.226C309.572 685.567 310.104 685.035 310.764 685.035C311.423 685.035 311.956 685.567 311.956 686.226ZM297.255 702.698V707.461C297.255 708.12 296.722 708.652 296.063 708.652C295.403 708.652 294.871 708.12 294.871 707.461V702.698C294.871 702.04 295.403 701.508 296.063 701.508C296.722 701.508 297.255 702.04 297.255 702.698ZM304.605 702.698V707.461C304.605 708.12 304.073 708.652 303.413 708.652C302.754 708.652 302.221 708.12 302.221 707.461V702.698C302.221 702.04 302.754 701.508 303.413 701.508C304.073 701.508 304.605 702.04 304.605 702.698ZM311.956 702.698V707.461C311.956 708.12 311.423 708.652 310.764 708.652C310.104 708.652 309.572 708.12 309.572 707.461V702.698C309.572 702.04 310.104 701.508 310.764 701.508C311.423 701.508 311.956 702.04 311.956 702.698ZM297.255 719.171V723.934C297.255 724.593 296.722 725.125 296.063 725.125C295.403 725.125 294.871 724.593 294.871 723.934V719.171C294.871 718.512 295.403 717.98 296.063 717.98C296.722 717.98 297.255 718.512 297.255 719.171ZM304.605 719.171V723.934C304.605 724.593 304.073 725.125 303.413 725.125C302.754 725.125 302.221 724.593 302.221 723.934V719.171C302.221 718.512 302.754 717.98 303.413 717.98C304.073 717.98 304.605 718.512 304.605 719.171ZM311.956 719.171V723.934C311.956 724.593 311.423 725.125 310.764 725.125C310.104 725.125 309.572 724.593 309.572 723.934V719.171C309.572 718.512 310.104 717.98 310.764 717.98C311.423 717.98 311.956 718.512 311.956 719.171ZM297.255 735.643V740.406C297.255 741.065 296.722 741.597 296.063 741.597C295.403 741.597 294.871 741.065 294.871 740.406V735.643C294.871 734.984 295.403 734.452 296.063 734.452C296.722 734.452 297.255 734.984 297.255 735.643ZM304.605 735.643V740.406C304.605 741.065 304.073 741.597 303.413 741.597C302.754 741.597 302.221 741.065 302.221 740.406V735.643C302.221 734.984 302.754 734.452 303.413 734.452C304.073 734.452 304.605 734.984 304.605 735.643ZM311.956 735.643V740.406C311.956 741.065 311.423 741.597 310.764 741.597C310.104 741.597 309.572 741.065 309.572 740.406V735.643C309.572 734.984 310.104 734.452 310.764 734.452C311.423 734.452 311.956 734.984 311.956 735.643ZM297.255 752.115V756.878C297.255 757.537 296.722 758.069 296.063 758.069C295.403 758.069 294.871 757.537 294.871 756.878V752.115C294.871 751.456 295.403 750.925 296.063 750.925C296.722 750.925 297.255 751.456 297.255 752.115ZM304.605 752.115V756.878C304.605 757.537 304.073 758.069 303.413 758.069C302.754 758.069 302.221 757.537 302.221 756.878V752.115C302.221 751.456 302.754 750.925 303.413 750.925C304.073 750.925 304.605 751.456 304.605 752.115ZM311.956 752.115V756.878C311.956 757.537 311.423 758.069 310.764 758.069C310.104 758.069 309.572 757.537 309.572 756.878V752.115C309.572 751.456 310.104 750.925 310.764 750.925C311.423 750.925 311.956 751.456 311.956 752.115ZM297.255 768.588V773.351C297.255 774.01 296.722 774.541 296.063 774.541C295.403 774.541 294.871 774.01 294.871 773.351V768.588C294.871 767.929 295.403 767.397 296.063 767.397C296.722 767.397 297.255 767.929 297.255 768.588ZM304.605 768.588V773.351C304.605 774.01 304.073 774.541 303.413 774.541C302.754 774.541 302.221 774.01 302.221 773.351V768.588C302.221 767.929 302.754 767.397 303.413 767.397C304.073 767.397 304.605 767.929 304.605 768.588ZM311.956 768.588V773.351C311.956 774.01 311.423 774.541 310.764 774.541C310.104 774.541 309.572 774.01 309.572 773.351V768.588C309.572 767.929 310.104 767.397 310.764 767.397C311.423 767.397 311.956 767.929 311.956 768.588ZM297.255 785.06V789.823C297.255 790.482 296.722 791.014 296.063 791.014C295.403 791.014 294.871 790.482 294.871 789.823V785.06C294.871 784.401 295.403 783.869 296.063 783.869C296.722 783.869 297.255 784.401 297.255 785.06ZM304.605 785.06V789.823C304.605 790.482 304.073 791.014 303.413 791.014C302.754 791.014 302.221 790.482 302.221 789.823V785.06C302.221 784.401 302.754 783.869 303.413 783.869C304.073 783.869 304.605 784.401 304.605 785.06ZM311.956 785.06V789.823C311.956 790.482 311.423 791.014 310.764 791.014C310.104 791.014 309.572 790.482 309.572 789.823V785.06C309.572 784.401 310.104 783.869 310.764 783.869C311.423 783.869 311.956 784.401 311.956 785.06ZM297.255 801.532V806.295C297.255 806.954 296.722 807.486 296.063 807.486C295.403 807.486 294.871 806.954 294.871 806.295V801.532C294.871 800.873 295.403 800.341 296.063 800.341C296.722 800.341 297.255 800.873 297.255 801.532ZM304.605 801.532V806.295C304.605 806.954 304.073 807.486 303.413 807.486C302.754 807.486 302.221 806.954 302.221 806.295V801.532C302.221 800.873 302.754 800.341 303.413 800.341C304.073 800.341 304.605 800.873 304.605 801.532ZM311.956 801.532V806.295C311.956 806.954 311.423 807.486 310.764 807.486C310.104 807.486 309.572 806.954 309.572 806.295V801.532C309.572 800.873 310.104 800.341 310.764 800.341C311.423 800.341 311.956 800.873 311.956 801.532ZM297.255 818.005V822.768C297.255 823.427 296.722 823.958 296.063 823.958C295.403 823.958 294.871 823.427 294.871 822.768V818.005C294.871 817.346 295.403 816.814 296.063 816.814C296.722 816.814 297.255 817.346 297.255 818.005ZM304.605 818.005V822.768C304.605 823.427 304.073 823.958 303.413 823.958C302.754 823.958 302.221 823.427 302.221 822.768V818.005C302.221 817.346 302.754 816.814 303.413 816.814C304.073 816.814 304.605 817.346 304.605 818.005ZM311.956 818.005V822.768C311.956 823.427 311.423 823.958 310.764 823.958C310.104 823.958 309.572 823.427 309.572 822.768V818.005C309.572 817.346 310.104 816.814 310.764 816.814C311.423 816.814 311.956 817.346 311.956 818.005ZM297.255 834.477V839.24C297.255 839.899 296.722 840.431 296.063 840.431C295.403 840.431 294.871 839.899 294.871 839.24V834.477C294.871 833.818 295.403 833.286 296.063 833.286C296.722 833.286 297.255 833.818 297.255 834.477ZM304.605 834.477V839.24C304.605 839.899 304.073 840.431 303.413 840.431C302.754 840.431 302.221 839.899 302.221 839.24V834.477C302.221 833.818 302.754 833.286 303.413 833.286C304.073 833.286 304.605 833.818 304.605 834.477ZM311.956 834.477V839.24C311.956 839.899 311.423 840.431 310.764 840.431C310.104 840.431 309.572 839.899 309.572 839.24V834.477C309.572 833.818 310.104 833.286 310.764 833.286C311.423 833.286 311.956 833.818 311.956 834.477ZM467.602 760.451C468.262 760.451 468.794 760.983 468.794 761.641V767C468.794 767.659 468.262 768.191 467.602 768.191C466.943 768.191 466.41 767.659 466.41 767V761.641C466.41 760.983 466.943 760.451 467.602 760.451ZM452.997 795.88H459.95C460.61 795.88 461.142 795.348 461.142 794.689V787.743C461.142 787.084 460.61 786.552 459.95 786.552H452.997C452.337 786.552 451.805 787.084 451.805 787.743V794.689C451.805 795.34 452.345 795.88 452.997 795.88ZM454.189 788.926H458.758V793.491H454.189V788.926ZM483.098 805.7V794.681C483.098 794.022 483.63 793.491 484.29 793.491C484.949 793.491 485.482 794.022 485.482 794.681V805.7C485.482 806.359 484.949 806.891 484.29 806.891C483.63 806.891 483.098 806.359 483.098 805.7ZM445.352 760.451C446.012 760.451 446.544 760.983 446.544 761.641V767C446.544 767.659 446.012 768.191 445.352 768.191C444.693 768.191 444.16 767.659 444.16 767V761.641C444.16 760.983 444.693 760.451 445.352 760.451ZM429.857 794.689V805.708C429.857 806.367 429.324 806.899 428.665 806.899C428.005 806.899 427.473 806.367 427.473 805.708V794.689C427.473 794.03 428.005 793.499 428.665 793.499C429.324 793.499 429.857 794.03 429.857 794.689ZM456.477 773.946C455.818 773.946 455.285 773.414 455.285 772.755V761.641C455.285 760.983 455.818 760.451 456.477 760.451C457.137 760.451 457.669 760.983 457.669 761.641V772.755C457.669 773.414 457.137 773.946 456.477 773.946ZM498.292 827.134V831.897C498.292 832.556 497.759 833.088 497.1 833.088C496.44 833.088 495.908 832.556 495.908 831.897V827.134C495.908 826.475 496.44 825.943 497.1 825.943C497.759 825.943 498.292 826.475 498.292 827.134ZM503.56 827.134V831.897C503.56 832.556 503.028 833.088 502.368 833.088C501.708 833.088 501.176 832.556 501.176 831.897V827.134C501.176 826.475 501.708 825.943 502.368 825.943C503.028 825.943 503.56 826.475 503.56 827.134ZM508.821 827.134V831.897C508.821 832.556 508.288 833.088 507.629 833.088C506.969 833.088 506.437 832.556 506.437 831.897V827.134C506.437 826.475 506.969 825.943 507.629 825.943C508.288 825.943 508.821 826.475 508.821 827.134ZM122.553 842.884H117.88C117.221 842.884 116.688 842.352 116.688 841.693C116.688 841.034 117.221 840.502 117.88 840.502H122.553C123.212 840.502 123.745 841.034 123.745 841.693C123.745 842.352 123.212 842.884 122.553 842.884ZM126.931 841.693C126.931 841.034 127.463 840.502 128.123 840.502H132.796C133.455 840.502 133.987 841.034 133.987 841.693C133.987 842.352 133.455 842.884 132.796 842.884H128.123C127.463 842.884 126.931 842.352 126.931 841.693ZM144.23 841.693C144.23 842.352 143.698 842.884 143.038 842.884H138.366C137.706 842.884 137.174 842.352 137.174 841.693C137.174 841.034 137.706 840.502 138.366 840.502H143.038C143.69 840.502 144.23 841.034 144.23 841.693ZM128.87 846.654C128.87 847.313 128.338 847.845 127.678 847.845H123.006C122.346 847.845 121.814 847.313 121.814 846.654C121.814 845.996 122.346 845.464 123.006 845.464H127.678C128.33 845.464 128.87 845.996 128.87 846.654ZM139.105 846.654C139.105 847.313 138.573 847.845 137.913 847.845H133.241C132.581 847.845 132.049 847.313 132.049 846.654C132.049 845.996 132.581 845.464 133.241 845.464H137.913C138.573 845.464 139.105 845.996 139.105 846.654ZM90.8066 782.091L72.8159 811.36C72.5934 811.725 72.196 811.924 71.7987 811.924C71.5842 811.924 71.3696 811.868 71.1789 811.749C70.6147 811.408 70.4399 810.669 70.7895 810.114L88.971 780.543C89.0901 780.345 89.2729 780.186 89.4795 780.09L106.763 772.001C106.779 771.993 106.795 771.993 106.819 771.985C106.85 771.969 106.89 771.961 106.922 771.946C106.962 771.93 107.001 771.922 107.049 771.914C107.081 771.906 107.113 771.906 107.144 771.898C107.192 771.89 107.232 771.89 107.28 771.89C107.311 771.89 107.343 771.89 107.375 771.898C107.423 771.906 107.462 771.906 107.51 771.914C107.542 771.922 107.574 771.93 107.605 771.938C107.653 771.954 107.693 771.961 107.732 771.985C107.748 771.993 107.764 771.993 107.78 772.001L125.064 780.09C125.278 780.186 125.453 780.345 125.572 780.543L143.754 810.114C144.095 810.677 143.921 811.408 143.364 811.749C143.166 811.868 142.951 811.924 142.744 811.924C142.347 811.924 141.95 811.725 141.727 811.36L123.737 782.091L107.287 774.391L90.8066 782.091ZM97.8233 841.693C97.8233 842.352 97.2909 842.884 96.6313 842.884H91.9588C91.2993 842.884 90.7668 842.352 90.7668 841.693C90.7668 841.034 91.2993 840.502 91.9588 840.502H96.6313C97.2829 840.502 97.8233 841.034 97.8233 841.693ZM80.5239 841.693C80.5239 841.034 81.0563 840.502 81.7159 840.502H86.3884C87.0479 840.502 87.5803 841.034 87.5803 841.693C87.5803 842.352 87.0479 842.884 86.3884 842.884H81.7159C81.0643 842.884 80.5239 842.352 80.5239 841.693ZM76.1454 842.884H71.4729C70.8134 842.884 70.2809 842.352 70.2809 841.693C70.2809 841.034 70.8134 840.502 71.4729 840.502H76.1454C76.805 840.502 77.3374 841.034 77.3374 841.693C77.3374 842.352 76.805 842.884 76.1454 842.884ZM92.6978 846.654C92.6978 847.313 92.1654 847.845 91.5059 847.845H86.8334C86.1738 847.845 85.6414 847.313 85.6414 846.654C85.6414 845.996 86.1738 845.464 86.8334 845.464H91.5059C92.1654 845.464 92.6978 845.996 92.6978 846.654ZM82.4628 846.654C82.4628 847.313 81.9304 847.845 81.2709 847.845H76.5984C75.9388 847.845 75.4064 847.313 75.4064 846.654C75.4064 845.996 75.9388 845.464 76.5984 845.464H81.2709C81.9225 845.464 82.4628 845.996 82.4628 846.654Z" fill="#2A6FF2"/>
<circle cx="236.883" cy="465.222" r="1.28297" fill="#2A6FF2"/>
<circle cx="346.236" cy="457.623" r="1.28297" fill="#2A6FF2"/>
<circle cx="486.827" cy="490.125" r="1.28297" fill="#2A6FF2"/>
<circle cx="136.804" cy="426.283" r="1.28297" fill="#2A6FF2"/>
<circle cx="438.338" cy="427.566" r="1.28297" fill="#2A6FF2"/>
<path d="M37.0818 501.404L43.3511 506.34L49.3852 501.404L55.1059 506.34L61.629 501.404" stroke="#2A6FF2" stroke-width="2.3" stroke-linecap="round" stroke-linejoin="round"/>
<path d="M328.152 457.623H340.852" stroke="#2A6FF2" stroke-width="2.3" stroke-linecap="round" stroke-linejoin="round"/>
<path d="M509.611 396.797H516.446" stroke="#2A6FF2" stroke-width="2.3" stroke-linecap="round" stroke-linejoin="round"/>
</g>
<defs>
<filter id="filter0_d" x="-24" y="-24" width="602" height="906" filterUnits="userSpaceOnUse" color-interpolation-filters="sRGB">
<feFlood flood-opacity="0" result="BackgroundImageFix"/>
<feColorMatrix in="SourceAlpha" type="matrix" values="0 0 0 0 0 0 0 0 0 0 0 0 0 0 0 0 0 0 127 0" result="hardAlpha"/>
<feOffset dx="4" dy="4"/>
<feGaussianBlur stdDeviation="14"/>
<feComposite in2="hardAlpha" operator="out"/>
<feColorMatrix type="matrix" values="0 0 0 0 0.565104 0 0 0 0 0.624446 0 0 0 0 0.729167 0 0 0 0.1 0"/>
<feBlend mode="normal" in2="BackgroundImageFix" result="effect1_dropShadow"/>
<feBlend mode="normal" in="SourceGraphic" in2="effect1_dropShadow" result="shape"/>
</filter>
<filter id="filter1_d" x="-24" y="-24" width="602" height="906" filterUnits="userSpaceOnUse" color-interpolation-filters="sRGB">
<feFlood flood-opacity="0" result="BackgroundImageFix"/>
<feColorMatrix in="SourceAlpha" type="matrix" values="0 0 0 0 0 0 0 0 0 0 0 0 0 0 0 0 0 0 127 0" result="hardAlpha"/>
<feOffset dx="4" dy="4"/>
<feGaussianBlur stdDeviation="14"/>
<feComposite in2="hardAlpha" operator="out"/>
<feColorMatrix type="matrix" values="0 0 0 0 0.565104 0 0 0 0 0.624446 0 0 0 0 0.729167 0 0 0 0.1 0"/>
<feBlend mode="normal" in2="BackgroundImageFix" result="effect1_dropShadow"/>
<feBlend mode="normal" in="SourceGraphic" in2="effect1_dropShadow" result="shape"/>
</filter>
<linearGradient id="paint0_linear" x1="0.00019132" y1="850" x2="132.581" y2="-60.2179" gradientUnits="userSpaceOnUse">
<stop stop-color="#113065"/>
<stop offset="1" stop-color="#113065" stop-opacity="0"/>
</linearGradient>
<clipPath id="clip0">
<rect width="546" height="850" fill="white"/>
</clipPath>
</defs>
</svg>
