<svg width="24" height="24" viewBox="0 0 24 24" fill="none" xmlns="http://www.w3.org/2000/svg">
<path d="M12 4L12 20" stroke="#909FBA" stroke-width="1.5" stroke-linecap="round"/>
<path d="M20 12L4 12" stroke="#909FBA" stroke-width="1.5" stroke-linecap="round"/>
</svg>
