<svg width="136" height="136" viewBox="0 0 136 136" fill="none" xmlns="http://www.w3.org/2000/svg">
<path opacity="0.06" d="M136 68C136 105.555 105.555 136 68 136C30.4446 136 0 105.555 0 68C0 30.4446 30.4446 0 68 0C105.555 0 136 30.4446 136 68Z" fill="#FB405A"/>
<path d="M106 68C106 88.9868 88.9868 106 68 106C47.0132 106 30 88.9868 30 68C30 47.0132 47.0132 30 68 30C88.9868 30 106 47.0132 106 68Z" fill="white"/>
<path fill-rule="evenodd" clip-rule="evenodd" d="M68 31C47.5655 31 31 47.5655 31 68C31 88.4345 47.5655 105 68 105C88.4345 105 105 88.4345 105 68C105 47.5655 88.4345 31 68 31ZM29 68C29 46.4609 46.4609 29 68 29C89.5391 29 107 46.4609 107 68C107 89.5391 89.5391 107 68 107C46.4609 107 29 89.5391 29 68Z" fill="#FB405A"/>
<path fill-rule="evenodd" clip-rule="evenodd" d="M76.7784 59.3632C77.1689 59.7538 77.1689 60.3869 76.7784 60.7774L60.7784 76.7774C60.3879 77.168 59.7547 77.168 59.3642 76.7774C58.9737 76.3869 58.9737 75.7538 59.3642 75.3632L75.3642 59.3632C75.7547 58.9727 76.3879 58.9727 76.7784 59.3632Z" fill="#FB405A"/>
<path fill-rule="evenodd" clip-rule="evenodd" d="M59.3643 59.3632C59.7549 58.9727 60.388 58.9727 60.7785 59.3632L76.7785 75.3632C77.1691 75.7537 77.1691 76.3869 76.7785 76.7774C76.388 77.1679 75.7549 77.1679 75.3643 76.7774L59.3643 60.7774C58.9738 60.3869 58.9738 59.7537 59.3643 59.3632Z" fill="#FB405A"/>
</svg>
