<svg width="243" height="124" viewBox="0 0 243 124" fill="none" xmlns="http://www.w3.org/2000/svg">
<rect opacity="0.05" x="59.668" width="124" height="124" rx="62" fill="#2A6FF2"/>
<circle cx="121.668" cy="62" r="38" fill="white" stroke="#2A6FF2" stroke-width="2"/>
<path d="M109.668 63.4571L117.346 71L135.668 53" stroke="#FB405A" stroke-width="2" stroke-linecap="round" stroke-linejoin="round"/>
<rect opacity="0.05" x="23.9629" y="72.2949" width="28.7545" height="28.7545" rx="6" transform="rotate(45 23.9629 72.2949)" fill="#2A6FF2"/>
<rect opacity="0.05" x="210.963" y="-0.705078" width="32.9958" height="32.9958" rx="8" transform="rotate(45 210.963 -0.705078)" fill="#2A6FF2"/>
</svg>
