<svg width="46" height="46" viewBox="0 0 46 46" fill="none" xmlns="http://www.w3.org/2000/svg">
<path d="M10 16C10 11.286 10 8.92893 11.4645 7.46447C12.9289 6 15.286 6 20 6H26C30.714 6 33.0711 6 34.5355 7.46447C36 8.92893 36 11.286 36 16V30C36 34.714 36 37.0711 34.5355 38.5355C33.0711 40 30.714 40 26 40H20C15.286 40 12.9289 40 11.4645 38.5355C10 37.0711 10 34.714 10 30V16Z" fill="white"/>
<path fill-rule="evenodd" clip-rule="evenodd" d="M19.9426 5.25H26.0574C28.3658 5.24999 30.1748 5.24998 31.5863 5.43975C33.031 5.63399 34.1711 6.03933 35.0659 6.93414C35.9607 7.82895 36.366 8.96897 36.5603 10.4137C36.75 11.8252 36.75 13.6342 36.75 15.9426V30.0574C36.75 32.3658 36.75 34.1748 36.5603 35.5863C36.366 37.031 35.9607 38.1711 35.0659 39.0659C34.1711 39.9607 33.031 40.366 31.5863 40.5603C30.1748 40.75 28.3658 40.75 26.0574 40.75H19.9426C17.6342 40.75 15.8252 40.75 14.4137 40.5603C12.969 40.366 11.8289 39.9607 10.9341 39.0659C10.0393 38.1711 9.63399 37.031 9.43975 35.5863C9.24998 34.1748 9.24999 32.3658 9.25 30.0574V15.9426C9.24999 13.6342 9.24998 11.8252 9.43975 10.4137C9.63399 8.96897 10.0393 7.82895 10.9341 6.93414C11.8289 6.03933 12.969 5.63399 14.4137 5.43975C15.8252 5.24998 17.6342 5.24999 19.9426 5.25ZM14.6136 6.92637C13.3352 7.09825 12.5645 7.42514 11.9948 7.9948C11.4251 8.56445 11.0982 9.33517 10.9264 10.6136C10.7516 11.9136 10.75 13.6218 10.75 16V30C10.75 32.3782 10.7516 34.0864 10.9264 35.3864C11.0982 36.6648 11.4251 37.4355 11.9948 38.0052C12.5645 38.5749 13.3352 38.9018 14.6136 39.0736C15.9136 39.2484 17.6218 39.25 20 39.25H26C28.3782 39.25 30.0864 39.2484 31.3864 39.0736C32.6648 38.9018 33.4355 38.5749 34.0052 38.0052C34.5749 37.4355 34.9018 36.6648 35.0736 35.3864C35.2484 34.0864 35.25 32.3782 35.25 30V16C35.25 13.6218 35.2484 11.9136 35.0736 10.6136C34.9018 9.33517 34.5749 8.56445 34.0052 7.9948C33.4355 7.42514 32.6648 7.09825 31.3864 6.92637C30.0864 6.75159 28.3782 6.75 26 6.75H20C17.6218 6.75 15.9136 6.75159 14.6136 6.92637Z" fill="#17356F"/>
<path opacity="0.3" fill-rule="evenodd" clip-rule="evenodd" d="M16.25 12C16.25 11.5858 16.5858 11.25 17 11.25L22 11.25C22.4142 11.25 22.75 11.5858 22.75 12C22.75 12.4142 22.4142 12.75 22 12.75L17 12.75C16.5858 12.75 16.25 12.4142 16.25 12Z" fill="#17356F"/>
<path opacity="0.3" fill-rule="evenodd" clip-rule="evenodd" d="M16.0095 33.5C16.0095 33.2239 16.2334 33 16.5095 33H29.4973C29.7734 33 29.9973 33.2239 29.9973 33.5C29.9973 33.7761 29.7734 34 29.4973 34H16.5095C16.2334 34 16.0095 33.7761 16.0095 33.5Z" fill="#17356F"/>
<path opacity="0.3" fill-rule="evenodd" clip-rule="evenodd" d="M26.9973 35.5C26.9973 35.2239 27.2212 35 27.4973 35H29.4973C29.7735 35 29.9973 35.2239 29.9973 35.5C29.9973 35.7761 29.7735 36 29.4973 36H27.4973C27.2212 36 26.9973 35.7761 26.9973 35.5Z" fill="#17356F"/>
<path opacity="0.3" fill-rule="evenodd" clip-rule="evenodd" d="M16.0095 35.5C16.0095 35.2239 16.2334 35 16.5095 35H25C25.2761 35 25.5 35.2239 25.5 35.5C25.5 35.7761 25.2761 36 25 36H16.5095C16.2334 36 16.0095 35.7761 16.0095 35.5Z" fill="#17356F"/>
<path opacity="0.3" d="M28 12C28 11.5286 28 11.2929 28.1464 11.1464C28.2929 11 28.5286 11 29 11C29.4714 11 29.7071 11 29.8536 11.1464C30 11.2929 30 11.5286 30 12C30 12.4714 30 12.7071 29.8536 12.8536C29.7071 13 29.4714 13 29 13C28.5286 13 28.2929 13 28.1464 12.8536C28 12.7071 28 12.4714 28 12Z" fill="#17356F"/>
<path opacity="0.3" d="M16 17C16 16.5286 16 16.2929 16.1464 16.1464C16.2929 16 16.5286 16 17 16H29C29.4714 16 29.7071 16 29.8536 16.1464C30 16.2929 30 16.5286 30 17C30 17.4714 30 17.7071 29.8536 17.8536C29.7071 18 29.4714 18 29 18H17C16.5286 18 16.2929 18 16.1464 17.8536C16 17.7071 16 17.4714 16 17Z" fill="#17356F"/>
<path d="M7 21C7 18.1716 7 16.7574 7.87868 15.8787C8.75736 15 10.1716 15 13 15H33C35.8284 15 37.2426 15 38.1213 15.8787C39 16.7574 39 18.1716 39 21V25C39 27.8284 39 29.2426 38.1213 30.1213C37.2426 31 35.8284 31 33 31H13C10.1716 31 8.75736 31 7.87868 30.1213C7 29.2426 7 27.8284 7 25V21Z" fill="#17356F"/>
<path d="M23.5198 18.6H21.6478L19.8238 22.104L17.9998 18.6H16.1278L18.9958 23.724V27H20.6398V23.724L23.5198 18.6Z" fill="white"/>
<path d="M25.9809 25.416V23.532H29.1609V21.972H25.9809V20.184H29.4609V18.6H24.3249V27H29.5209V25.416H25.9809Z" fill="white"/>
<path d="M42 8C42 11.3137 39.3137 14 36 14C32.6863 14 30 11.3137 30 8C30 4.68629 32.6863 2 36 2C39.3137 2 42 4.68629 42 8Z" fill="#FB405A"/>
<path d="M37.3212 10.5H38.7213L36.8173 4.89999H35.1853L33.2812 10.5H34.6813L34.9613 9.61999H37.0413L37.3212 10.5ZM35.3453 8.41999L36.0013 6.36399L36.6573 8.41999H35.3453Z" fill="white"/>
</svg>
